{"count":282,"page":1,"first":1,"last":30,"hits":30,"carrier":0,"pageCount":10,"Items":[{"Item":{"title":"おいしいセルビー料理の職人たちをたずねて","titleKana":"オイシイ セルビー リョウリ ノ ショクニンタチ オ タズネテ","subTitle":"","subTitleKana":"","seriesName":"","seriesNameKana":"","contents":"","author":"トッド・セルビー/和田侑子","authorKana":"セルビー,トッド/ワダ,ユウコ","publisherName":"グラフィック社","size":"単行本","isbn":"9784766125320","itemCaption":"","salesDate":"2013年10月","itemPrice":2415,"listPrice":2415,"discountRate":0,"discountPrice":0,"itemUrl":"http://books.rakuten.co.jp/rb/12490311/","affiliateUrl":"","smallImageUrl":"http://thumbnail.image.rakuten.co.jp/@0_mall/book/cabinet/5320/9784766125320.jpg?_ex=64x64","mediumImageUrl":"http://thumbnail.image.rakuten.co.jp/@0_mall/book/cabinet/5320/9784766125320.jpg?_ex=120x120","largeImageUrl":"http://thumbnail.image.rakuten.co.jp/@0_mall/book/cabinet/5320/9784766125320.jpg?_ex=200x200","chirayomiUrl":"","availability":"6","postageFlag":1,"limitedFlag":0,"reviewCount":0,"reviewAverage":"0.0","booksGenreId":"001010011001"}},{"Item":{"title":"中嶋常幸の真剣ゴルフ塾（ペブルビーチ・ラウンド編）","titleKana":"ナカジマ ツネユキ ノ シンケン ゴルフジュク","subTitle":"","subTitleKana":"","seriesName":"ＧＡＫＫＥＮ　ＳＰＯＲＴＳ　ＭＯＯＫ","seriesNameKana":"ガッケン スポーツ ムック","contents":"","author":"中島常幸/いけうち誠一","authorKana":"ナカジマ,ツネユキ/イケウチ,セイイチ","publisherName":"Pargolf　＆　Company","size":"ムックその他","isbn":"9784056102130","itemCaption":"","salesDate":"2013年09月27日","itemPrice":525,"listPrice":525,"discountRate":0,"discountPrice":0,"itemUrl":"http://books.rakuten.co.jp/rb/12426766/","affiliateUrl":"","smallImageUrl":"http://thumbnail.image.rakuten.co.jp/@0_mall/book/cabinet/2130/9784056102130.jpg?_ex=64x64","mediumImageUrl":"http://thumbnail.image.rakuten.co.jp/@0_mall/book/cabinet/2130/9784056102130.jpg?_ex=120x120","largeImageUrl":"http://thumbnail.image.rakuten.co.jp/@0_mall/book/cabinet/2130/9784056102130.jpg?_ex=200x200","chirayomiUrl":"","availability":"1","postageFlag":0,"limitedFlag":0,"reviewCount":0,"reviewAverage":"0.0","booksGenreId":"001009001010"}},{"Item":{"title":"アイドルビースト","titleKana":"アイドル ビースト","subTitle":"","subTitleKana":"","seriesName":"ダリアコミックス","seriesNameKana":"ダリア コミックス","contents":"","author":"あくた琳子","authorKana":"アクタ,リンコ","publisherName":"フロンティアワークス","size":"コミック","isbn":"9784861346392","itemCaption":"","salesDate":"2013年09月21日","itemPrice":680,"listPrice":680,"discountRate":0,"discountPrice":0,"itemUrl":"http://books.rakuten.co.jp/rb/12416901/","affiliateUrl":"","smallImageUrl":"http://thumbnail.image.rakuten.co.jp/@0_mall/book/cabinet/6392/9784861346392.jpg?_ex=64x64","mediumImageUrl":"http://thumbnail.image.rakuten.co.jp/@0_mall/book/cabinet/6392/9784861346392.jpg?_ex=120x120","largeImageUrl":"http://thumbnail.image.rakuten.co.jp/@0_mall/book/cabinet/6392/9784861346392.jpg?_ex=200x200","chirayomiUrl":"","availability":"1","postageFlag":0,"limitedFlag":0,"reviewCount":0,"reviewAverage":"0.0","booksGenreId":"001021001017/001021002015"}},{"Item":{"title":"パーフェクトRuby","titleKana":"パーフェクト ルビー","subTitle":"","subTitleKana":"","seriesName":"Ｐｅｒｆｅｃｔ　ｓｅｒｉｅｓ","seriesNameKana":"パーフェクト シリーズ","contents":"","author":"Ｒｕｂｙサポーターズ","authorKana":"ルビー サポーターズ","publisherName":"技術評論社","size":"単行本","isbn":"9784774158792","itemCaption":"Ｒｕｂｙのセオリーを徹底解説。基本からｇｅｍパッケージの作成方法やＷｅｂアプリケーション開発まで、最新の技術を完全網羅。","salesDate":"2013年09月","itemPrice":3360,"listPrice":3360,"discountRate":0,"discountPrice":0,"itemUrl":"http://books.rakuten.co.jp/rb/12402942/","affiliateUrl":"","smallImageUrl":"http://thumbnail.image.rakuten.co.jp/@0_mall/book/cabinet/8792/9784774158792.jpg?_ex=64x64","mediumImageUrl":"http://thumbnail.image.rakuten.co.jp/@0_mall/book/cabinet/8792/9784774158792.jpg?_ex=120x120","largeImageUrl":"http://thumbnail.image.rakuten.co.jp/@0_mall/book/cabinet/8792/9784774158792.jpg?_ex=200x200","chirayomiUrl":"","availability":"1","postageFlag":2,"limitedFlag":0,"reviewCount":0,"reviewAverage":"0.0","booksGenreId":"001005005011"}},{"Item":{"title":"Cr-Br咬合のルーツ","titleKana":"シーアール ビーアール コウゴウ ノ ルーツ","subTitle":"Ｇｎａｔｈｏｌｏｇｙと対峙した石原咬合論・顆頭安定","subTitleKana":"ナソロジー ト タイジシタ イシハラ コウゴウ ロン カトウ ア","seriesName":"","seriesNameKana":"","contents":"","author":"河野正司/大石忠雄","authorKana":"コウノ,ショウジ/オオイシ,タダオ","publisherName":"医歯薬出版","size":"単行本","isbn":"9784263464168","itemCaption":"","salesDate":"2013年09月","itemPrice":5460,"listPrice":5460,"discountRate":0,"discountPrice":0,"itemUrl":"http://books.rakuten.co.jp/rb/12459396/","affiliateUrl":"","smallImageUrl":"http://thumbnail.image.rakuten.co.jp/@0_mall/book/cabinet/4168/9784263464168.jpg?_ex=64x64","mediumImageUrl":"http://thumbnail.image.rakuten.co.jp/@0_mall/book/cabinet/4168/9784263464168.jpg?_ex=120x120","largeImageUrl":"http://thumbnail.image.rakuten.co.jp/@0_mall/book/cabinet/4168/9784263464168.jpg?_ex=200x200","chirayomiUrl":"","availability":"3","postageFlag":2,"limitedFlag":0,"reviewCount":0,"reviewAverage":"0.0","booksGenreId":"001012009005"}},{"Item":{"title":"2044　NOLTYキャレルB6バーチカル（ブラック）","titleKana":"2044 ノルティ キャレル ビーロク バーチカル ブラック","subTitle":"","subTitleKana":"","seriesName":"","seriesNameKana":"","contents":"","author":"","authorKana":"","publisherName":"日本能率協会マネジメントセンター","size":"単行本","isbn":"9784800500854","itemCaption":"","salesDate":"2013年09月","itemPrice":1680,"listPrice":1680,"discountRate":0,"discountPrice":0,"itemUrl":"http://books.rakuten.co.jp/rb/12461906/","affiliateUrl":"","smallImageUrl":"http://thumbnail.image.rakuten.co.jp/@0_mall/book/cabinet/noimage_01.gif?_ex=64x64","mediumImageUrl":"http://thumbnail.image.rakuten.co.jp/@0_mall/book/cabinet/noimage_01.gif?_ex=120x120","largeImageUrl":"http://thumbnail.image.rakuten.co.jp/@0_mall/book/cabinet/noimage_01.gif?_ex=200x200","chirayomiUrl":"","availability":"1","postageFlag":1,"limitedFlag":0,"reviewCount":0,"reviewAverage":"0.0","booksGenreId":"001015"}},{"Item":{"title":"2041　NOLTYキャレルB6ウィーク1（ネイビー）","titleKana":"2041 ノルティ キャレル ビーロク ウィーク イチ ネイビー","subTitle":"","subTitleKana":"","seriesName":"","seriesNameKana":"","contents":"","author":"","authorKana":"","publisherName":"日本能率協会マネジメントセンター","size":"単行本","isbn":"9784800500830","itemCaption":"","salesDate":"2013年09月","itemPrice":1680,"listPrice":1680,"discountRate":0,"discountPrice":0,"itemUrl":"http://books.rakuten.co.jp/rb/12461901/","affiliateUrl":"","smallImageUrl":"http://thumbnail.image.rakuten.co.jp/@0_mall/book/cabinet/noimage_01.gif?_ex=64x64","mediumImageUrl":"http://thumbnail.image.rakuten.co.jp/@0_mall/book/cabinet/noimage_01.gif?_ex=120x120","largeImageUrl":"http://thumbnail.image.rakuten.co.jp/@0_mall/book/cabinet/noimage_01.gif?_ex=200x200","chirayomiUrl":"","availability":"1","postageFlag":1,"limitedFlag":0,"reviewCount":0,"reviewAverage":"0.0","booksGenreId":"001015"}},{"Item":{"title":"2045　NOLTYキャレルB6バーチカル（オレンジ）","titleKana":"2045 ノルティ キャレル ビーロク バーチカル オレンジ","subTitle":"","subTitleKana":"","seriesName":"","seriesNameKana":"","contents":"","author":"","authorKana":"","publisherName":"日本能率協会マネジメントセンター","size":"単行本","isbn":"9784800500861","itemCaption":"","salesDate":"2013年09月","itemPrice":1680,"listPrice":1680,"discountRate":0,"discountPrice":0,"itemUrl":"http://books.rakuten.co.jp/rb/12461907/","affiliateUrl":"","smallImageUrl":"http://thumbnail.image.rakuten.co.jp/@0_mall/book/cabinet/noimage_01.gif?_ex=64x64","mediumImageUrl":"http://thumbnail.image.rakuten.co.jp/@0_mall/book/cabinet/noimage_01.gif?_ex=120x120","largeImageUrl":"http://thumbnail.image.rakuten.co.jp/@0_mall/book/cabinet/noimage_01.gif?_ex=200x200","chirayomiUrl":"","availability":"1","postageFlag":1,"limitedFlag":0,"reviewCount":0,"reviewAverage":"0.0","booksGenreId":"001015"}},{"Item":{"title":"2047　NOLTYキャレルB6ウィーク2（ブラック）","titleKana":"2047 ノルティ キャレル ビーロク ウィーク ニ ブラック","subTitle":"","subTitleKana":"","seriesName":"","seriesNameKana":"","contents":"","author":"","authorKana":"","publisherName":"日本能率協会マネジメントセンター","size":"単行本","isbn":"9784800500878","itemCaption":"","salesDate":"2013年09月","itemPrice":1680,"listPrice":1680,"discountRate":0,"discountPrice":0,"itemUrl":"http://books.rakuten.co.jp/rb/12461903/","affiliateUrl":"","smallImageUrl":"http://thumbnail.image.rakuten.co.jp/@0_mall/book/cabinet/noimage_01.gif?_ex=64x64","mediumImageUrl":"http://thumbnail.image.rakuten.co.jp/@0_mall/book/cabinet/noimage_01.gif?_ex=120x120","largeImageUrl":"http://thumbnail.image.rakuten.co.jp/@0_mall/book/cabinet/noimage_01.gif?_ex=200x200","chirayomiUrl":"","availability":"1","postageFlag":1,"limitedFlag":0,"reviewCount":0,"reviewAverage":"0.0","booksGenreId":"001015"}},{"Item":{"title":"2042　NOLTYキャレルB6ウィーク1（レッド）","titleKana":"2042 ノルティ キャレル ビーロク ウィーク イチ レッド","subTitle":"","subTitleKana":"","seriesName":"","seriesNameKana":"","contents":"","author":"","authorKana":"","publisherName":"日本能率協会マネジメントセンター","size":"単行本","isbn":"9784800500847","itemCaption":"","salesDate":"2013年09月","itemPrice":1680,"listPrice":1680,"discountRate":0,"discountPrice":0,"itemUrl":"http://books.rakuten.co.jp/rb/12461902/","affiliateUrl":"","smallImageUrl":"http://thumbnail.image.rakuten.co.jp/@0_mall/book/cabinet/noimage_01.gif?_ex=64x64","mediumImageUrl":"http://thumbnail.image.rakuten.co.jp/@0_mall/book/cabinet/noimage_01.gif?_ex=120x120","largeImageUrl":"http://thumbnail.image.rakuten.co.jp/@0_mall/book/cabinet/noimage_01.gif?_ex=200x200","chirayomiUrl":"","availability":"1","postageFlag":1,"limitedFlag":0,"reviewCount":0,"reviewAverage":"0.0","booksGenreId":"001015"}},{"Item":{"title":"2048　NOLTYキャレルB6ウィーク2（ピンク）","titleKana":"2048 ノルティ キャレル ビーロク ウィーク ニ ピンク","subTitle":"","subTitleKana":"","seriesName":"","seriesNameKana":"","contents":"","author":"","authorKana":"","publisherName":"日本能率協会マネジメントセンター","size":"単行本","isbn":"9784800500885","itemCaption":"","salesDate":"2013年09月","itemPrice":1680,"listPrice":1680,"discountRate":0,"discountPrice":0,"itemUrl":"http://books.rakuten.co.jp/rb/12461905/","affiliateUrl":"","smallImageUrl":"http://thumbnail.image.rakuten.co.jp/@0_mall/book/cabinet/noimage_01.gif?_ex=64x64","mediumImageUrl":"http://thumbnail.image.rakuten.co.jp/@0_mall/book/cabinet/noimage_01.gif?_ex=120x120","largeImageUrl":"http://thumbnail.image.rakuten.co.jp/@0_mall/book/cabinet/noimage_01.gif?_ex=200x200","chirayomiUrl":"","availability":"1","postageFlag":1,"limitedFlag":0,"reviewCount":0,"reviewAverage":"0.0","booksGenreId":"001015"}},{"Item":{"title":"備えるBCMから使えるBCMへ","titleKana":"ソナエル ビーシーエム カラ ツカエル ビーシーエム エ","subTitle":"持続的な企業価値の創造に向けて","subTitleKana":"ジゾクテキナ キギョウ カチ ノ ソウゾウ ニ ムケテ","seriesName":"","seriesNameKana":"","contents":"","author":"安井肇/あらた基礎研究所","authorKana":"ヤスイ,ハジメ/アラタ キソ ケンキュウジョ","publisherName":"慶応義塾大学出版会","size":"単行本","isbn":"9784766420524","itemCaption":"どのような災害が起こっても、その場の危機対応だけでなく、限られた経営資源を再配分し、事業を経続していくことが重要である。そのためには何が必要なのだろうか？本書は、最新の理論と実践とを第一線の専門家が分かりやすく解説する。これまでのＢＣＭを再構築しよう、真に役立つＢＣＭを構築しよう、新たな企業価値を創造しようと思う経営者・ＢＣＭ担当者に必読の１冊！","salesDate":"2013年07月21日","itemPrice":2310,"listPrice":2310,"discountRate":0,"discountPrice":0,"itemUrl":"http://books.rakuten.co.jp/rb/12321603/","affiliateUrl":"","smallImageUrl":"http://thumbnail.image.rakuten.co.jp/@0_mall/book/cabinet/0524/9784766420524.jpg?_ex=64x64","mediumImageUrl":"http://thumbnail.image.rakuten.co.jp/@0_mall/book/cabinet/0524/9784766420524.jpg?_ex=120x120","largeImageUrl":"http://thumbnail.image.rakuten.co.jp/@0_mall/book/cabinet/0524/9784766420524.jpg?_ex=200x200","chirayomiUrl":"","availability":"1","postageFlag":1,"limitedFlag":0,"reviewCount":0,"reviewAverage":"0.0","booksGenreId":"001006018002"}},{"Item":{"title":"セルビーのお部屋めぐり","titleKana":"セルビー ノ オヘヤ メグリ","subTitle":"","subTitleKana":"","seriesName":"","seriesNameKana":"","contents":"","author":"トッド・セルビー/和田侑子","authorKana":"セルビー,トッド/ワダ,ユウコ","publisherName":"グラフィック社","size":"単行本","isbn":"9784766125313","itemCaption":"","salesDate":"2013年08月","itemPrice":2415,"listPrice":2415,"discountRate":0,"discountPrice":0,"itemUrl":"http://books.rakuten.co.jp/rb/12432181/","affiliateUrl":"","smallImageUrl":"http://thumbnail.image.rakuten.co.jp/@0_mall/book/cabinet/5313/9784766125313.jpg?_ex=64x64","mediumImageUrl":"http://thumbnail.image.rakuten.co.jp/@0_mall/book/cabinet/5313/9784766125313.jpg?_ex=120x120","largeImageUrl":"http://thumbnail.image.rakuten.co.jp/@0_mall/book/cabinet/5313/9784766125313.jpg?_ex=200x200","chirayomiUrl":"","availability":"1","postageFlag":1,"limitedFlag":0,"reviewCount":0,"reviewAverage":"0.0","booksGenreId":"001010004001"}},{"Item":{"title":"マンガ家と作るBLポーズ集キスシーンデッサン集（2）","titleKana":"マンガカ ト ツクル ビーエル ポーズシュウ キス シーン デッサンシュウ","subTitle":"","subTitleKana":"","seriesName":"","seriesNameKana":"","contents":"","author":"スカーレット・ベリ子/Ｄｅａｒ＋編集部","authorKana":"スカーレット ベリコ/ディア プラス ヘンシュウブ","publisherName":"新書館","size":"単行本","isbn":"9784403650659","itemCaption":"","salesDate":"2013年08月09日","itemPrice":2520,"listPrice":2520,"discountRate":0,"discountPrice":0,"itemUrl":"http://books.rakuten.co.jp/rb/12399922/","affiliateUrl":"","smallImageUrl":"http://thumbnail.image.rakuten.co.jp/@0_mall/book/cabinet/0659/9784403650659.jpg?_ex=64x64","mediumImageUrl":"http://thumbnail.image.rakuten.co.jp/@0_mall/book/cabinet/0659/9784403650659.jpg?_ex=120x120","largeImageUrl":"http://thumbnail.image.rakuten.co.jp/@0_mall/book/cabinet/0659/9784403650659.jpg?_ex=200x200","chirayomiUrl":"","availability":"3","postageFlag":1,"limitedFlag":0,"reviewCount":1,"reviewAverage":"4.0","booksGenreId":"001015"}},{"Item":{"title":"LBX激闘列伝プラモ戦機改（第2巻）","titleKana":"エルビーエックス ゲキトウ レツデン プラモ センキ カイ","subTitle":"","subTitleKana":"","seriesName":"コロコロコミックス","seriesNameKana":"コロコロ コミックス","contents":"","author":"瀬戸カズヨシ","authorKana":"セト,カズヨシ","publisherName":"小学館","size":"コミック","isbn":"9784091416582","itemCaption":"","salesDate":"2013年07月26日","itemPrice":420,"listPrice":420,"discountRate":0,"discountPrice":0,"itemUrl":"http://books.rakuten.co.jp/rb/12346090/","affiliateUrl":"","smallImageUrl":"http://thumbnail.image.rakuten.co.jp/@0_mall/book/cabinet/6582/9784091416582.jpg?_ex=64x64","mediumImageUrl":"http://thumbnail.image.rakuten.co.jp/@0_mall/book/cabinet/6582/9784091416582.jpg?_ex=120x120","largeImageUrl":"http://thumbnail.image.rakuten.co.jp/@0_mall/book/cabinet/6582/9784091416582.jpg?_ex=200x200","chirayomiUrl":"","availability":"1","postageFlag":0,"limitedFlag":0,"reviewCount":0,"reviewAverage":"0.0","booksGenreId":"001001001014"}},{"Item":{"title":"マンガ家と作るBLポーズ集（5）","titleKana":"マンガカトツクルビーエルポーズシュウ ゴ","subTitle":"第一線のプロが選んだトレースフリーの素材集","subTitleKana":"ダイイッセン ノ プロ ガ エランダ トレース フリー ノ ソ","seriesName":"","seriesNameKana":"","contents":"友達から恋人へ篇","author":"夏目イサク","authorKana":"ナツメイサク","publisherName":"新書館","size":"単行本","isbn":"9784403650635","itemCaption":"","salesDate":"2013年04月16日","itemPrice":2100,"listPrice":2100,"discountRate":0,"discountPrice":0,"itemUrl":"http://books.rakuten.co.jp/rb/12254457/","affiliateUrl":"","smallImageUrl":"http://thumbnail.image.rakuten.co.jp/@0_mall/book/cabinet/0635/9784403650635.jpg?_ex=64x64","mediumImageUrl":"http://thumbnail.image.rakuten.co.jp/@0_mall/book/cabinet/0635/9784403650635.jpg?_ex=120x120","largeImageUrl":"http://thumbnail.image.rakuten.co.jp/@0_mall/book/cabinet/0635/9784403650635.jpg?_ex=200x200","chirayomiUrl":"","availability":"1","postageFlag":1,"limitedFlag":0,"reviewCount":1,"reviewAverage":"2.0","booksGenreId":"001009009007"}},{"Item":{"title":"たのしいRuby第4版","titleKana":"タノシイ ルビー","subTitle":"","subTitleKana":"","seriesName":"","seriesNameKana":"","contents":"","author":"高橋征義/後藤裕蔵","authorKana":"タカハシ,マサヨシ/ゴトウ,ユウゾウ","publisherName":"SBクリエイティブ","size":"単行本","isbn":"9784797372274","itemCaption":"","salesDate":"2013年06月","itemPrice":2730,"listPrice":2730,"discountRate":0,"discountPrice":0,"itemUrl":"http://books.rakuten.co.jp/rb/12330550/","affiliateUrl":"","smallImageUrl":"http://thumbnail.image.rakuten.co.jp/@0_mall/book/cabinet/2274/9784797372274.jpg?_ex=64x64","mediumImageUrl":"http://thumbnail.image.rakuten.co.jp/@0_mall/book/cabinet/2274/9784797372274.jpg?_ex=120x120","largeImageUrl":"http://thumbnail.image.rakuten.co.jp/@0_mall/book/cabinet/2274/9784797372274.jpg?_ex=200x200","chirayomiUrl":"","availability":"1","postageFlag":1,"limitedFlag":0,"reviewCount":0,"reviewAverage":"0.0","booksGenreId":"001005005001"}},{"Item":{"title":"ケルビーニ対位法とフーガ講座","titleKana":"ケルビーニ タイイホウ ト フーガ コウザ","subTitle":"","subTitleKana":"","seriesName":"","seriesNameKana":"","contents":"","author":"ルイージ・ケルビーニ/小鍛冶邦隆","authorKana":"ケルビーニ,ルイージ/コカジ,クニタカ","publisherName":"アルテスパブリッシング","size":"単行本","isbn":"9784903951645","itemCaption":"シューマン、ショパン、ドビュッシー…みんなこの本で大作曲家になった。パリ音楽院、英国王立音楽院で採用され、ヨーロッパ各国で数多くの音楽家が学んだ１９世紀の大ベストセラー教科書、待望の邦訳。対位法の基礎からフーガの奥義までをこの１冊で！","salesDate":"2013年05月","itemPrice":3675,"listPrice":3675,"discountRate":0,"discountPrice":0,"itemUrl":"http://books.rakuten.co.jp/rb/12250171/","affiliateUrl":"","smallImageUrl":"http://thumbnail.image.rakuten.co.jp/@0_mall/book/cabinet/1645/9784903951645.jpg?_ex=64x64","mediumImageUrl":"http://thumbnail.image.rakuten.co.jp/@0_mall/book/cabinet/1645/9784903951645.jpg?_ex=120x120","largeImageUrl":"http://thumbnail.image.rakuten.co.jp/@0_mall/book/cabinet/1645/9784903951645.jpg?_ex=200x200","chirayomiUrl":"","availability":"3","postageFlag":2,"limitedFlag":0,"reviewCount":0,"reviewAverage":"0.0","booksGenreId":"001011003003"}},{"Item":{"title":"TV　ANIMATIONダンボール戦機W「LBXカタログ」（＃12-58）","titleKana":"ティーヴイ アニメーション ダンボール センキ ダブル エルビーエックス カタ","subTitle":"","subTitleKana":"","seriesName":"コロコロコミックススペシャル","seriesNameKana":"コロコロ コミックス スペシャル","contents":"","author":"レベルファイブ","authorKana":"レベル ファイブ","publisherName":"小学館","size":"コミック","isbn":"9784091416452","itemCaption":"","salesDate":"2013年04月","itemPrice":600,"listPrice":600,"discountRate":0,"discountPrice":0,"itemUrl":"http://books.rakuten.co.jp/rb/12299155/","affiliateUrl":"","smallImageUrl":"http://thumbnail.image.rakuten.co.jp/@0_mall/book/cabinet/6452/9784091416452.jpg?_ex=64x64","mediumImageUrl":"http://thumbnail.image.rakuten.co.jp/@0_mall/book/cabinet/6452/9784091416452.jpg?_ex=120x120","largeImageUrl":"http://thumbnail.image.rakuten.co.jp/@0_mall/book/cabinet/6452/9784091416452.jpg?_ex=200x200","chirayomiUrl":"","availability":"1","postageFlag":0,"limitedFlag":0,"reviewCount":1,"reviewAverage":"5.0","booksGenreId":"001015"}},{"Item":{"title":"リフレが正しい。FRB議長ベン・バーナンキの言葉","titleKana":"リフレ ガ タダシイ エフアールビー ギチョウ ベン バーナンキ ノ コトバ","subTitle":"","subTitleKana":"","seriesName":"","seriesNameKana":"","contents":"","author":"ベン・Ｓ．バーナンキ/高橋洋一（経済学）","authorKana":"バーナンキ,ベン・S./タカハシ,ヨウイチ","publisherName":"中経出版","size":"単行本","isbn":"9784806147589","itemCaption":"インフレ目標とは、中央銀行の独立性とは、デフレの害悪とは。金融政策の世界的権威、アベノミクスに結論を下す。","salesDate":"2013年05月24日","itemPrice":1470,"listPrice":1470,"discountRate":0,"discountPrice":0,"itemUrl":"http://books.rakuten.co.jp/rb/12283144/","affiliateUrl":"","smallImageUrl":"http://thumbnail.image.rakuten.co.jp/@0_mall/book/cabinet/7589/9784806147589.jpg?_ex=64x64","mediumImageUrl":"http://thumbnail.image.rakuten.co.jp/@0_mall/book/cabinet/7589/9784806147589.jpg?_ex=120x120","largeImageUrl":"http://thumbnail.image.rakuten.co.jp/@0_mall/book/cabinet/7589/9784806147589.jpg?_ex=200x200","chirayomiUrl":"http://books.rakuten.co.jp/chirayomi/index.phtml?id=738y7:4T03&path=8n/X7Q4Z0u&iid=9784806147589","availability":"1","postageFlag":0,"limitedFlag":0,"reviewCount":0,"reviewAverage":"0.0","booksGenreId":"001015"}},{"Item":{"title":"RとRubyによるデータ解析入門","titleKana":"アール ト ルビー ニ ヨル データ カイセキ ニュウモン","subTitle":"","subTitleKana":"","seriesName":"","seriesNameKana":"","contents":"","author":"ソーション・チャン/瀬戸山雅人","authorKana":"チャン,ソーション/セトヤマ,マサト","publisherName":"オライリー・ジャパン","size":"単行本","isbn":"9784873116150","itemCaption":"人気の高いオープンソースのツール、ＲとＲｕｂｙを使い、生データを処理し、シミュレーションし、仮説を立て、統計的手法を用いて検証する、というデータサイエンスの基本の理解を促します。基本が学べるだけでなく、自分のメールボックスや自分の心臓の鼓動など身近な題材を対象としており、データサイエンスの醍醐味を味わうことができる一冊です。日本語版ではさまざまな統計手法についての入門となる章を追加。この本で使っている統計の基礎も学べる構成になっています。","salesDate":"2013年04月","itemPrice":2940,"listPrice":2940,"discountRate":0,"discountPrice":0,"itemUrl":"http://books.rakuten.co.jp/rb/12301464/","affiliateUrl":"","smallImageUrl":"http://thumbnail.image.rakuten.co.jp/@0_mall/book/cabinet/6150/9784873116150.jpg?_ex=64x64","mediumImageUrl":"http://thumbnail.image.rakuten.co.jp/@0_mall/book/cabinet/6150/9784873116150.jpg?_ex=120x120","largeImageUrl":"http://thumbnail.image.rakuten.co.jp/@0_mall/book/cabinet/6150/9784873116150.jpg?_ex=200x200","chirayomiUrl":"","availability":"1","postageFlag":1,"limitedFlag":0,"reviewCount":0,"reviewAverage":"0.0","booksGenreId":"001012002"}},{"Item":{"title":"MLB＆NPBスーパープレーヤー直伝（バッティング＆走塁）","titleKana":"エムエルビー アンド エヌピービー スーパー プレーヤー ジキデン","subTitle":"上手くなる練習法＆プロのギア大紹介","subTitleKana":"ウマクナル レンシュウホウ アンド プロ ノ ギア ダイショウ","seriesName":"Ｓｅｉｂｉｄｏ　ｍｏｏｋ","seriesNameKana":"セイビドウ ムック","contents":"","author":"成美堂出版株式会社","authorKana":"セイビドウ シュッパン カブシキ ガイシャ","publisherName":"成美堂出版","size":"ムックその他","isbn":"9784415111032","itemCaption":"","salesDate":"2013年04月","itemPrice":998,"listPrice":998,"discountRate":0,"discountPrice":0,"itemUrl":"http://books.rakuten.co.jp/rb/12286609/","affiliateUrl":"","smallImageUrl":"http://thumbnail.image.rakuten.co.jp/@0_mall/book/cabinet/1032/9784415111032.jpg?_ex=64x64","mediumImageUrl":"http://thumbnail.image.rakuten.co.jp/@0_mall/book/cabinet/1032/9784415111032.jpg?_ex=120x120","largeImageUrl":"http://thumbnail.image.rakuten.co.jp/@0_mall/book/cabinet/1032/9784415111032.jpg?_ex=200x200","chirayomiUrl":"http://books.rakuten.co.jp/chirayomi/index.phtml?id=7w9v2D3V6y&path=8L/+2g3n69&iid=9784415111032","availability":"1","postageFlag":0,"limitedFlag":0,"reviewCount":0,"reviewAverage":"0.0","booksGenreId":"001009001004"}},{"Item":{"title":"MLB＆NPBスーパープレーヤー直伝（ピッチング＆守備）","titleKana":"エムエルビー アンド エヌピービー スーパー プレーヤー ジキデン","subTitle":"上手くなる練習法＆プロのギア大紹介","subTitleKana":"ウマクナル レンシュウホウ アンド プロ ノ ギア ダイショウ","seriesName":"Ｓｅｉｂｉｄｏ　ｍｏｏｋ","seriesNameKana":"セイビドウ ムック","contents":"","author":"成美堂出版株式会社","authorKana":"セイビドウ シュッパン カブシキ ガイシャ","publisherName":"成美堂出版","size":"ムックその他","isbn":"9784415111025","itemCaption":"","salesDate":"2013年04月","itemPrice":998,"listPrice":998,"discountRate":0,"discountPrice":0,"itemUrl":"http://books.rakuten.co.jp/rb/12286608/","affiliateUrl":"","smallImageUrl":"http://thumbnail.image.rakuten.co.jp/@0_mall/book/cabinet/1025/9784415111025.jpg?_ex=64x64","mediumImageUrl":"http://thumbnail.image.rakuten.co.jp/@0_mall/book/cabinet/1025/9784415111025.jpg?_ex=120x120","largeImageUrl":"http://thumbnail.image.rakuten.co.jp/@0_mall/book/cabinet/1025/9784415111025.jpg?_ex=200x200","chirayomiUrl":"http://books.rakuten.co.jp/chirayomi/index.phtml?id=7d9C2l3z7c&path=80/X2H3+7.&iid=9784415111025","availability":"1","postageFlag":0,"limitedFlag":0,"reviewCount":0,"reviewAverage":"0.0","booksGenreId":"001009001004"}},{"Item":{"title":"Angel Beats！-Heaven’s Door 5","titleKana":"エンジェル ビーツ ヘブンズ ドア","subTitle":"","subTitleKana":"","seriesName":"DC","seriesNameKana":"デンゲキ コミックス","contents":"","author":"浅見百合子/麻枝准","authorKana":"アサミ,ユリコ/アサエダ,ジュン","publisherName":"アスキー・メディアワークス","size":"コミック","isbn":"9784048915731","itemCaption":"","salesDate":"2013年04月27日","itemPrice":599,"listPrice":599,"discountRate":0,"discountPrice":0,"itemUrl":"http://books.rakuten.co.jp/rb/12235153/","affiliateUrl":"","smallImageUrl":"http://thumbnail.image.rakuten.co.jp/@0_mall/book/cabinet/5731/9784048915731.jpg?_ex=64x64","mediumImageUrl":"http://thumbnail.image.rakuten.co.jp/@0_mall/book/cabinet/5731/9784048915731.jpg?_ex=120x120","largeImageUrl":"http://thumbnail.image.rakuten.co.jp/@0_mall/book/cabinet/5731/9784048915731.jpg?_ex=200x200","chirayomiUrl":"","availability":"1","postageFlag":0,"limitedFlag":0,"reviewCount":2,"reviewAverage":"4.5","booksGenreId":"001001003046"}},{"Item":{"title":"トヨタ86＆スバルBRZ（no．2）","titleKana":"トヨタ ハチジュウロク アンド スバル ビーアールゼット","subTitle":"チューニング＆ドレスアップ徹底ガイド","subTitleKana":"チューニング アンド ドレスアップ テッテイ ガイド","seriesName":"ハイパーレブ＊ニューズムック","seriesNameKana":"ハイパー レブ*ニューズ ムック","contents":"","author":"","authorKana":"","publisherName":"三栄書房","size":"ムックその他","isbn":"9784779618680","itemCaption":"","salesDate":"2013年07月","itemPrice":2100,"listPrice":2100,"discountRate":0,"discountPrice":0,"itemUrl":"http://books.rakuten.co.jp/rb/12416402/","affiliateUrl":"","smallImageUrl":"http://thumbnail.image.rakuten.co.jp/@0_mall/book/cabinet/8680/9784779618680.jpg?_ex=64x64","mediumImageUrl":"http://thumbnail.image.rakuten.co.jp/@0_mall/book/cabinet/8680/9784779618680.jpg?_ex=120x120","largeImageUrl":"http://thumbnail.image.rakuten.co.jp/@0_mall/book/cabinet/8680/9784779618680.jpg?_ex=200x200","chirayomiUrl":"","availability":"1","postageFlag":1,"limitedFlag":0,"reviewCount":2,"reviewAverage":"5.0","booksGenreId":"001009003003/001012010003"}},{"Item":{"title":"プリンセス・レッスンはルビーのお城で","titleKana":"プリンセス レッスン ワ ルビー ノ オシロ デ","subTitle":"","subTitleKana":"","seriesName":"コバルト文庫","seriesNameKana":"コバルト ブンコ","contents":"","author":"山本瑤","authorKana":"ヤマモト,ヨウ","publisherName":"集英社","size":"文庫","isbn":"9784086017251","itemCaption":"王侯貴族や資産家の令嬢のみが通う全寮制学校「エコール・ドゥ・ブランシュ」。その華やかなパーティの最中に突如、婚約者と名のるアランブール王国の皇太子がソランジュを迎えに来た！しかも皇太子は、かつてルームメイトだった女装男子…ソランジュが密かに想いを寄せていたアレクシスだった！ソランジュは王女として王国に向かうことになるのだが…嘘と秘密のラブロマンス、第２弾。","salesDate":"2013年05月01日","itemPrice":557,"listPrice":557,"discountRate":0,"discountPrice":0,"itemUrl":"http://books.rakuten.co.jp/rb/12285393/","affiliateUrl":"","smallImageUrl":"http://thumbnail.image.rakuten.co.jp/@0_mall/book/cabinet/7251/9784086017251.jpg?_ex=64x64","mediumImageUrl":"http://thumbnail.image.rakuten.co.jp/@0_mall/book/cabinet/7251/9784086017251.jpg?_ex=120x120","largeImageUrl":"http://thumbnail.image.rakuten.co.jp/@0_mall/book/cabinet/7251/9784086017251.jpg?_ex=200x200","chirayomiUrl":"","availability":"1","postageFlag":0,"limitedFlag":0,"reviewCount":0,"reviewAverage":"0.0","booksGenreId":"001004008008/001017006009"}},{"Item":{"title":"DVD＞車のDIYメンテナンスDVD　SUBARU　BRZ編","titleKana":"クルマ ノ ディーアイワイ メンテナンス ディーヴイディー スバル ビーアール","subTitle":"","subTitleKana":"","seriesName":"＜ＤＶＤ＞","seriesNameKana":"DVD","contents":"","author":"","authorKana":"","publisherName":"AVEST","size":"カセット、CD等","isbn":"9784904121351","itemCaption":"","salesDate":"2013年04月","itemPrice":2940,"listPrice":2940,"discountRate":0,"discountPrice":0,"itemUrl":"http://books.rakuten.co.jp/rb/12236620/","affiliateUrl":"","smallImageUrl":"http://thumbnail.image.rakuten.co.jp/@0_mall/book/cabinet/noimage_01.gif?_ex=64x64","mediumImageUrl":"http://thumbnail.image.rakuten.co.jp/@0_mall/book/cabinet/noimage_01.gif?_ex=120x120","largeImageUrl":"http://thumbnail.image.rakuten.co.jp/@0_mall/book/cabinet/noimage_01.gif?_ex=200x200","chirayomiUrl":"","availability":"6","postageFlag":1,"limitedFlag":0,"reviewCount":0,"reviewAverage":"0.0","booksGenreId":"001015"}},{"Item":{"title":"トヨタ86＆スバルBRZ","titleKana":"トヨタ ハチジュウロク アンド スバル ビーアールゼット","subTitle":"チューニング＆ドレスアップ徹底ガイド","subTitleKana":"チューニング アンド ドレスアップ テッテイ ガイド","seriesName":"ハイパーレブ＊ニューズムック","seriesNameKana":"ハイパー レブ*ニューズ ムック","contents":"","author":"","authorKana":"","publisherName":"三栄書房","size":"ムックその他","isbn":"9784779616938","itemCaption":"","salesDate":"2013年01月","itemPrice":2100,"listPrice":2100,"discountRate":0,"discountPrice":0,"itemUrl":"http://books.rakuten.co.jp/rb/12184049/","affiliateUrl":"","smallImageUrl":"http://thumbnail.image.rakuten.co.jp/@0_mall/book/cabinet/6938/9784779616938.jpg?_ex=64x64","mediumImageUrl":"http://thumbnail.image.rakuten.co.jp/@0_mall/book/cabinet/6938/9784779616938.jpg?_ex=120x120","largeImageUrl":"http://thumbnail.image.rakuten.co.jp/@0_mall/book/cabinet/6938/9784779616938.jpg?_ex=200x200","chirayomiUrl":"","availability":"1","postageFlag":1,"limitedFlag":0,"reviewCount":3,"reviewAverage":"5.0","booksGenreId":"001009003003/001012010003"}},{"Item":{"title":"9090　4月始まり能率ダイアリーキャレルB6バーチカル（ブラック）","titleKana":"9090 シガツ ハジマリ ノウリツ ダイアリー キャレル ビーロク バーチカル","subTitle":"","subTitleKana":"","seriesName":"","seriesNameKana":"","contents":"","author":"","authorKana":"","publisherName":"日本能率協会マネジメントセンター","size":"単行本","isbn":"9784820758341","itemCaption":"","salesDate":"2013年02月","itemPrice":1701,"listPrice":1701,"discountRate":0,"discountPrice":0,"itemUrl":"http://books.rakuten.co.jp/rb/12202887/","affiliateUrl":"","smallImageUrl":"http://thumbnail.image.rakuten.co.jp/@0_mall/book/cabinet/noimage_01.gif?_ex=64x64","mediumImageUrl":"http://thumbnail.image.rakuten.co.jp/@0_mall/book/cabinet/noimage_01.gif?_ex=120x120","largeImageUrl":"http://thumbnail.image.rakuten.co.jp/@0_mall/book/cabinet/noimage_01.gif?_ex=200x200","chirayomiUrl":"","availability":"6","postageFlag":1,"limitedFlag":0,"reviewCount":0,"reviewAverage":"0.0","booksGenreId":"001015"}},{"Item":{"title":"MLB選手名鑑（2013）","titleKana":"エムエルビー センシュ メイカン","subTitle":"ＭＬＢ　ＣＯＭＰＬＥＴＥ　ＧＵＩＤＥ","subTitleKana":"エムエルビー コンプリート ガイド","seriesName":"ＮＳＫ　ｍｏｏｋ","seriesNameKana":"エヌエスケイ ムック","contents":"全３０球団コンプリートガイド","author":"スラッガー編集部","authorKana":"スラッガー ヘンシュウブ","publisherName":"日本スポーツ企画出版社","size":"ムックその他","isbn":"9784905411123","itemCaption":"","salesDate":"2013年02月","itemPrice":1260,"listPrice":1260,"discountRate":0,"discountPrice":0,"itemUrl":"http://books.rakuten.co.jp/rb/12213842/","affiliateUrl":"","smallImageUrl":"http://thumbnail.image.rakuten.co.jp/@0_mall/book/cabinet/1123/9784905411123.jpg?_ex=64x64","mediumImageUrl":"http://thumbnail.image.rakuten.co.jp/@0_mall/book/cabinet/1123/9784905411123.jpg?_ex=120x120","largeImageUrl":"http://thumbnail.image.rakuten.co.jp/@0_mall/book/cabinet/1123/9784905411123.jpg?_ex=200x200","chirayomiUrl":"","availability":"1","postageFlag":0,"limitedFlag":0,"reviewCount":1,"reviewAverage":"5.0","booksGenreId":"001009001004"}}],"GenreInformation":[]}