{"count":67,"page":1,"first":1,"last":30,"hits":30,"carrier":0,"pageCount":3,"Items":[{"Item":{"title":"ルビー・スパークス","titleKana":"ルビー スパークス","artistName":"ポール・ダノ/ゾーイ・カザン/アネット・ベニング/ジョナサン・デイトン","artistNameKana":"ダノ ポール/カザン ゾーイ/ベニング アネット/デイトン ジョナサン","label":"20世紀フォックスホームエンターテイメントジャパン(株)","jan":"4988142964922","makerCode":"FXBNG-54567","itemCaption":"DVD3枚購入では⇒こちらからエントリー","salesDate":"2013年10月02日","itemPrice":989,"listPrice":1490,"discountRate":33,"discountPrice":501,"itemUrl":"http://books.rakuten.co.jp/rb/12402731/","affiliateUrl":"","smallImageUrl":"http://thumbnail.image.rakuten.co.jp/@0_mall/book/cabinet/4922/4988142964922.jpg?_ex=64x64","mediumImageUrl":"http://thumbnail.image.rakuten.co.jp/@0_mall/book/cabinet/4922/4988142964922.jpg?_ex=120x120","largeImageUrl":"http://thumbnail.image.rakuten.co.jp/@0_mall/book/cabinet/4922/4988142964922.jpg?_ex=200x200","availability":"1","postageFlag":0,"limitedFlag":0,"reviewCount":0,"reviewAverage":"0.0","booksGenreId":"003201001/003201006/003205001"}},{"Item":{"title":"ルビー・スパークス 【Blu-ray】","titleKana":"ルビー スパークス","artistName":"ポール・ダノ/ゾーイ・カザン/アネット・ベニング/ジョナサン・デイトン","artistNameKana":"ダノ ポール/カザン ゾーイ/ベニング アネット/デイトン ジョナサン","label":"20世紀フォックスホームエンターテイメントジャパン(株)","jan":"4988142962928","makerCode":"FXXJC-54567","itemCaption":"Blu-ray2枚購入で3,000円！さらにポイント5倍⇒こちらからエントリー","salesDate":"2013年10月02日","itemPrice":1500,"listPrice":2000,"discountRate":24,"discountPrice":500,"itemUrl":"http://books.rakuten.co.jp/rb/12402712/","affiliateUrl":"","smallImageUrl":"http://thumbnail.image.rakuten.co.jp/@0_mall/book/cabinet/2928/4988142962928.jpg?_ex=64x64","mediumImageUrl":"http://thumbnail.image.rakuten.co.jp/@0_mall/book/cabinet/2928/4988142962928.jpg?_ex=120x120","largeImageUrl":"http://thumbnail.image.rakuten.co.jp/@0_mall/book/cabinet/2928/4988142962928.jpg?_ex=200x200","availability":"1","postageFlag":0,"limitedFlag":0,"reviewCount":0,"reviewAverage":"0.0","booksGenreId":"003215001"}},{"Item":{"title":"セシル・B/ザ・シネマ・ウォーズ","titleKana":"セシル ビー ザ シネマ ウォーズ","artistName":"スティーヴン・ドーフ/メラニー・グリフィス/アリシア・ウィット/ジョン・ウォーターズ","artistNameKana":"ドーフ スティーブン/グリフィス メラニー/ウィット アリシア/ウォーターズ ジョン","label":"ワーナーエンターテイメントジャパン(株)","jan":"4548967018486","makerCode":"1000425558","itemCaption":"","salesDate":"2013年10月02日","itemPrice":2984,"listPrice":3980,"discountRate":25,"discountPrice":996,"itemUrl":"http://books.rakuten.co.jp/rb/12407835/","affiliateUrl":"","smallImageUrl":"http://thumbnail.image.rakuten.co.jp/@0_mall/book/cabinet/8486/4548967018486.jpg?_ex=64x64","mediumImageUrl":"http://thumbnail.image.rakuten.co.jp/@0_mall/book/cabinet/8486/4548967018486.jpg?_ex=120x120","largeImageUrl":"http://thumbnail.image.rakuten.co.jp/@0_mall/book/cabinet/8486/4548967018486.jpg?_ex=200x200","availability":"1","postageFlag":1,"limitedFlag":0,"reviewCount":0,"reviewAverage":"0.0","booksGenreId":"003201001/003205001"}},{"Item":{"title":"マダガスカル BBCオリジナル完全版【Blu-ray】","titleKana":"マダガスカル ビービーシーオリジナルカンゼンバン","artistName":"","artistNameKana":"","label":"エイベックス・マーケティング(株)","jan":"4988064623976","makerCode":"AVXF-62397","itemCaption":"","salesDate":"2013年06月26日","itemPrice":5774,"listPrice":5980,"discountRate":3,"discountPrice":206,"itemUrl":"http://books.rakuten.co.jp/rb/12247336/","affiliateUrl":"","smallImageUrl":"http://thumbnail.image.rakuten.co.jp/@0_mall/book/cabinet/3976/4988064623976.jpg?_ex=64x64","mediumImageUrl":"http://thumbnail.image.rakuten.co.jp/@0_mall/book/cabinet/3976/4988064623976.jpg?_ex=120x120","largeImageUrl":"http://thumbnail.image.rakuten.co.jp/@0_mall/book/cabinet/3976/4988064623976.jpg?_ex=200x200","availability":"1","postageFlag":2,"limitedFlag":0,"reviewCount":0,"reviewAverage":"0.0","booksGenreId":"003215013"}},{"Item":{"title":"マダガスカル BBCオリジナル完全版","titleKana":"マダガスカル ビービーシーオリジナルカンゼンバン","artistName":"","artistNameKana":"","label":"エイベックス・マーケティング(株)","jan":"4988064624560","makerCode":"AVBF-62456/7","itemCaption":"","salesDate":"2013年06月26日","itemPrice":4980,"listPrice":4980,"discountRate":0,"discountPrice":0,"itemUrl":"http://books.rakuten.co.jp/rb/12247333/","affiliateUrl":"","smallImageUrl":"http://thumbnail.image.rakuten.co.jp/@0_mall/book/cabinet/4560/4988064624560.jpg?_ex=64x64","mediumImageUrl":"http://thumbnail.image.rakuten.co.jp/@0_mall/book/cabinet/4560/4988064624560.jpg?_ex=120x120","largeImageUrl":"http://thumbnail.image.rakuten.co.jp/@0_mall/book/cabinet/4560/4988064624560.jpg?_ex=200x200","availability":"1","postageFlag":2,"limitedFlag":0,"reviewCount":0,"reviewAverage":"0.0","booksGenreId":"003204001/003204002/003204003/003204004/003204005/003204006/003204007/003204008"}},{"Item":{"title":"ルビー・スパークス【Blu-ray】","titleKana":"ルビー スパークス","artistName":"ポール・ダノ/ゾーイ・カザン/アネット・ベニング/ジョナサン・デイトン","artistNameKana":"ダノ ポール/カザン ゾーイ/ベニング アネット/デイトン ジョナサン","label":"20世紀フォックスホームエンターテイメントジャパン(株)","jan":"4988142946324","makerCode":"FXXA-54567","itemCaption":"","salesDate":"2013年04月24日","itemPrice":2615,"listPrice":4990,"discountRate":47,"discountPrice":2375,"itemUrl":"http://books.rakuten.co.jp/rb/12195133/","affiliateUrl":"","smallImageUrl":"http://thumbnail.image.rakuten.co.jp/@0_mall/book/cabinet/6324/4988142946324.jpg?_ex=64x64","mediumImageUrl":"http://thumbnail.image.rakuten.co.jp/@0_mall/book/cabinet/6324/4988142946324.jpg?_ex=120x120","largeImageUrl":"http://thumbnail.image.rakuten.co.jp/@0_mall/book/cabinet/6324/4988142946324.jpg?_ex=200x200","availability":"1","postageFlag":1,"limitedFlag":0,"reviewCount":0,"reviewAverage":"0.0","booksGenreId":"003214"}},{"Item":{"title":"ルビー・スパークス","titleKana":"ルビー スパークス","artistName":"ポール・ダノ/ゾーイ・カザン/アネット・ベニング/ジョナサン・デイトン","artistNameKana":"ダノ ポール/カザン ゾーイ/ベニング アネット/デイトン ジョナサン","label":"20世紀フォックスホームエンターテイメントジャパン(株)","jan":"4988142946225","makerCode":"FXBA-54567","itemCaption":"","salesDate":"2013年04月24日","itemPrice":2090,"listPrice":3990,"discountRate":47,"discountPrice":1900,"itemUrl":"http://books.rakuten.co.jp/rb/12195132/","affiliateUrl":"","smallImageUrl":"http://thumbnail.image.rakuten.co.jp/@0_mall/book/cabinet/6225/4988142946225.jpg?_ex=64x64","mediumImageUrl":"http://thumbnail.image.rakuten.co.jp/@0_mall/book/cabinet/6225/4988142946225.jpg?_ex=120x120","largeImageUrl":"http://thumbnail.image.rakuten.co.jp/@0_mall/book/cabinet/6225/4988142946225.jpg?_ex=200x200","availability":"1","postageFlag":1,"limitedFlag":0,"reviewCount":0,"reviewAverage":"0.0","booksGenreId":"003201001/003205001"}},{"Item":{"title":"ゼア・ウィル・ビー・ブラッド【Blu-ray】","titleKana":"ゼア ウィル ビー ブラッド","artistName":"ダニエル・デイ=ルイス/ポール・ダノ/ケヴィン・J.オコナー/ポール・トーマス・アンダーソン","artistNameKana":"デイルイス ダニエル/ダノ ポール/オコナー ケビンジェイ/アンダーソン ポールトーマス","label":"ワーナーエンターテイメントジャパン","jan":"4988135893611","makerCode":"1000266350","itemCaption":"","salesDate":"2012年02月08日","itemPrice":1500,"listPrice":2500,"discountRate":39,"discountPrice":1000,"itemUrl":"http://books.rakuten.co.jp/rb/11452296/","affiliateUrl":"","smallImageUrl":"http://thumbnail.image.rakuten.co.jp/@0_mall/book/cabinet/3611/4988135893611.jpg?_ex=64x64","mediumImageUrl":"http://thumbnail.image.rakuten.co.jp/@0_mall/book/cabinet/3611/4988135893611.jpg?_ex=120x120","largeImageUrl":"http://thumbnail.image.rakuten.co.jp/@0_mall/book/cabinet/3611/4988135893611.jpg?_ex=200x200","availability":"1","postageFlag":0,"limitedFlag":0,"reviewCount":0,"reviewAverage":"0.0","booksGenreId":"003215001"}},{"Item":{"title":"ゼア・ウィル・ビー・ブラッド","titleKana":"ゼア ウィル ビー ブラッド","artistName":"ダニエル・デイ=ルイス/ポール・ダノ/ケヴィン・J.オコナー/ポール・トーマス・アンダーソン","artistNameKana":"デイルイス ダニエル/ダノ ポール/オコナー ケビンジェイ/アンダーソン ポールトーマス","label":"ワーナーエンターテイメントジャパン","jan":"4988135893000","makerCode":"1000265936","itemCaption":"","salesDate":"2012年02月08日","itemPrice":1000,"listPrice":1500,"discountRate":33,"discountPrice":500,"itemUrl":"http://books.rakuten.co.jp/rb/11452044/","affiliateUrl":"","smallImageUrl":"http://thumbnail.image.rakuten.co.jp/@0_mall/book/cabinet/3000/4988135893000.jpg?_ex=64x64","mediumImageUrl":"http://thumbnail.image.rakuten.co.jp/@0_mall/book/cabinet/3000/4988135893000.jpg?_ex=120x120","largeImageUrl":"http://thumbnail.image.rakuten.co.jp/@0_mall/book/cabinet/3000/4988135893000.jpg?_ex=200x200","availability":"1","postageFlag":0,"limitedFlag":0,"reviewCount":1,"reviewAverage":"5.0","booksGenreId":"003201001/003205001"}},{"Item":{"title":"ケルビーニ:歌劇「ククルジ」全曲","titleKana":"ケルビーニカゲキククルジ","artistName":"(クラシック)","artistNameKana":"","label":"ナクソス・ジャパン(株)","jan":"4945604316385","makerCode":"101638","itemCaption":"","salesDate":"2012年06月27日","itemPrice":6284,"listPrice":6983,"discountRate":10,"discountPrice":699,"itemUrl":"http://books.rakuten.co.jp/rb/11700522/","affiliateUrl":"","smallImageUrl":"http://thumbnail.image.rakuten.co.jp/@0_mall/book/cabinet/noimage_01.gif?_ex=64x64","mediumImageUrl":"http://thumbnail.image.rakuten.co.jp/@0_mall/book/cabinet/noimage_01.gif?_ex=120x120","largeImageUrl":"http://thumbnail.image.rakuten.co.jp/@0_mall/book/cabinet/noimage_01.gif?_ex=200x200","availability":"4","postageFlag":2,"limitedFlag":0,"reviewCount":0,"reviewAverage":"0.0","booksGenreId":"003207001003/003207002003"}},{"Item":{"title":"Lead Upturn 2010 〜I'll Be Around★〜","titleKana":"リード アップターン 2010 アイル ビー アラウンド","artistName":"Lead","artistNameKana":"リード","label":"(株)ポニーキャニオン","jan":"4988013479227","makerCode":"PCBP-52055","itemCaption":"","salesDate":"2010年12月08日","itemPrice":5233,"listPrice":5500,"discountRate":4,"discountPrice":267,"itemUrl":"http://books.rakuten.co.jp/rb/6728154/","affiliateUrl":"","smallImageUrl":"http://thumbnail.image.rakuten.co.jp/@0_mall/book/cabinet/9227/4988013479227.jpg?_ex=64x64","mediumImageUrl":"http://thumbnail.image.rakuten.co.jp/@0_mall/book/cabinet/9227/4988013479227.jpg?_ex=120x120","largeImageUrl":"http://thumbnail.image.rakuten.co.jp/@0_mall/book/cabinet/9227/4988013479227.jpg?_ex=200x200","availability":"1","postageFlag":2,"limitedFlag":0,"reviewCount":2,"reviewAverage":"4.5","booksGenreId":"003207001001"}},{"Item":{"title":"Angel Beats! 5【完全生産限定版】","titleKana":"エンジェルビーツ 5","artistName":"神谷浩史/櫻井浩美/花澤香菜/岸誠二","artistNameKana":"カミヤヒロシ/サクライヒロミ/ハナザワカナ/キシセイジ","label":"(株)アニプレックス","jan":"4534530037411","makerCode":"ANZB-6409/10","itemCaption":" ⇒『AngelBeats!特集』はこちら！","salesDate":"2010年10月27日","itemPrice":6048,"listPrice":6300,"discountRate":4,"discountPrice":252,"itemUrl":"http://books.rakuten.co.jp/rb/6504554/","affiliateUrl":"","smallImageUrl":"http://thumbnail.image.rakuten.co.jp/@0_mall/book/cabinet/7411/4534530037411.jpg?_ex=64x64","mediumImageUrl":"http://thumbnail.image.rakuten.co.jp/@0_mall/book/cabinet/7411/4534530037411.jpg?_ex=120x120","largeImageUrl":"http://thumbnail.image.rakuten.co.jp/@0_mall/book/cabinet/7411/4534530037411.jpg?_ex=200x200","availability":"3","postageFlag":2,"limitedFlag":1,"reviewCount":3,"reviewAverage":"3.33","booksGenreId":"003206001/003206002/003206003/003206004/003206005"}},{"Item":{"title":"Angel Beats! 7【完全生産限定版】","titleKana":"エンジェルビーツ 7","artistName":"神谷浩史/櫻井浩美/花澤香菜/岸誠二","artistNameKana":"カミヤヒロシ/サクライヒロミ/ハナザワカナ/キシセイジ","label":"(株)アニプレックス","jan":"4534530038227","makerCode":"ANZB-6413/4","itemCaption":"【エントリー不要】こちらの商品はご購入でポイント6倍対象商品です。詳細はこちら","salesDate":"2010年12月22日","itemPrice":6300,"listPrice":6300,"discountRate":0,"discountPrice":0,"itemUrl":"http://books.rakuten.co.jp/rb/6515610/","affiliateUrl":"","smallImageUrl":"http://thumbnail.image.rakuten.co.jp/@0_mall/book/cabinet/8227/4534530038227.jpg?_ex=64x64","mediumImageUrl":"http://thumbnail.image.rakuten.co.jp/@0_mall/book/cabinet/8227/4534530038227.jpg?_ex=120x120","largeImageUrl":"http://thumbnail.image.rakuten.co.jp/@0_mall/book/cabinet/8227/4534530038227.jpg?_ex=200x200","availability":"3","postageFlag":2,"limitedFlag":1,"reviewCount":4,"reviewAverage":"4.25","booksGenreId":"003206001/003206002/003206003/003206004/003206005"}},{"Item":{"title":"Angel Beats! 4【完全生産限定版】","titleKana":"エンジェルビーツ 4","artistName":"神谷浩史/櫻井浩美/花澤香菜/岸誠二","artistNameKana":"カミヤヒロシ/サクライヒロミ/ハナザワカナ/キシセイジ","label":"(株)アニプレックス","jan":"4534530037374","makerCode":"ANZB-6407/8","itemCaption":"！    ⇒『AngelBeats!特集』はこちら！  人気ゲームのシナリオライターとして活躍してきた麻枝准が原作・脚本を担当した、ピーエーワークス制作の人生賛歌アニメ。何らかの理由で最期を迎えた少年が、死後の世界の学校で神への反抗を続ける少女に出会って……。","salesDate":"2010年09月22日","itemPrice":6300,"listPrice":6300,"discountRate":0,"discountPrice":0,"itemUrl":"http://books.rakuten.co.jp/rb/6491773/","affiliateUrl":"","smallImageUrl":"http://thumbnail.image.rakuten.co.jp/@0_mall/book/cabinet/7374/4534530037374.jpg?_ex=64x64","mediumImageUrl":"http://thumbnail.image.rakuten.co.jp/@0_mall/book/cabinet/7374/4534530037374.jpg?_ex=120x120","largeImageUrl":"http://thumbnail.image.rakuten.co.jp/@0_mall/book/cabinet/7374/4534530037374.jpg?_ex=200x200","availability":"3","postageFlag":2,"limitedFlag":1,"reviewCount":3,"reviewAverage":"4.0","booksGenreId":"003206001/003206002/003206003/003206004/003206005"}},{"Item":{"title":"Angel Beats! 2【完全生産限定版】","titleKana":"エンジェルビーツ 2","artistName":"神谷浩史/櫻井浩美/花澤香菜/岸誠二","artistNameKana":"カミヤヒロシ/サクライヒロミ/ハナザワカナ/キシセイジ","label":"(株)アニプレックス","jan":"4534530037008","makerCode":"ANZB-6403/4","itemCaption":"人気ゲームのシナリオライターとして活躍してきた麻枝准が原作・脚本を担当した、ピーエーワークス制作の人生賛歌アニメ。何らかの理由で最期を迎えた少年が、死後の世界の学校で神への反抗を続ける少女に出会って……。","salesDate":"2010年07月21日","itemPrice":6029,"listPrice":6300,"discountRate":4,"discountPrice":271,"itemUrl":"http://books.rakuten.co.jp/rb/6449266/","affiliateUrl":"","smallImageUrl":"http://thumbnail.image.rakuten.co.jp/@0_mall/book/cabinet/7008/4534530037008.jpg?_ex=64x64","mediumImageUrl":"http://thumbnail.image.rakuten.co.jp/@0_mall/book/cabinet/7008/4534530037008.jpg?_ex=120x120","largeImageUrl":"http://thumbnail.image.rakuten.co.jp/@0_mall/book/cabinet/7008/4534530037008.jpg?_ex=200x200","availability":"3","postageFlag":2,"limitedFlag":1,"reviewCount":5,"reviewAverage":"4.0","booksGenreId":"003206001/003206002/003206003/003206004/003206005"}},{"Item":{"title":"Angel Beats! 6【完全生産限定版】","titleKana":"エンジェルビーツ 6","artistName":"神谷浩史/櫻井浩美/花澤香菜/岸誠二","artistNameKana":"カミヤヒロシ/サクライヒロミ/ハナザワカナ/キシセイジ","label":"(株)アニプレックス","jan":"4534530038265","makerCode":"ANZB-6411/2","itemCaption":"【エントリー不要】こちらの商品はご購入でポイント6倍対象商品です。詳細はこちら【期間限定】ポイント3倍(2011年8月31日23：59まで)ポイントアップは、こちらからエントリーが必要です！   対象3,000タイトル以上ポイント3倍！最大50％OFFセール！その他対象商品はこちらから！","salesDate":"2010年11月24日","itemPrice":6300,"listPrice":6300,"discountRate":0,"discountPrice":0,"itemUrl":"http://books.rakuten.co.jp/rb/6515604/","affiliateUrl":"","smallImageUrl":"http://thumbnail.image.rakuten.co.jp/@0_mall/book/cabinet/8265/4534530038265.jpg?_ex=64x64","mediumImageUrl":"http://thumbnail.image.rakuten.co.jp/@0_mall/book/cabinet/8265/4534530038265.jpg?_ex=120x120","largeImageUrl":"http://thumbnail.image.rakuten.co.jp/@0_mall/book/cabinet/8265/4534530038265.jpg?_ex=200x200","availability":"3","postageFlag":2,"limitedFlag":1,"reviewCount":3,"reviewAverage":"4.0","booksGenreId":"003206001/003206002/003206003/003206004/003206005"}},{"Item":{"title":"Angel Beats! 1【完全生産限定版】","titleKana":"エンジェルビーツ 1","artistName":"神谷浩史/櫻井浩美/花澤香菜/岸誠二","artistNameKana":"カミヤヒロシ/サクライヒロミ/ハナザワカナ/キシセイジ","label":"(株)アニプレックス","jan":"4534530036520","makerCode":"ANZB-6401/2","itemCaption":"人気ゲームのシナリオライターとして活躍してきた麻枝准が原作・脚本を担当した、ピーエーワークス制作の人生賛歌アニメ。何らかの理由で最期を迎えた少年が、死後の世界の学校で神への反抗を続ける少女に出会って……。","salesDate":"2010年06月23日","itemPrice":6057,"listPrice":6300,"discountRate":3,"discountPrice":243,"itemUrl":"http://books.rakuten.co.jp/rb/6442480/","affiliateUrl":"","smallImageUrl":"http://thumbnail.image.rakuten.co.jp/@0_mall/book/cabinet/6520/4534530036520.jpg?_ex=64x64","mediumImageUrl":"http://thumbnail.image.rakuten.co.jp/@0_mall/book/cabinet/6520/4534530036520.jpg?_ex=120x120","largeImageUrl":"http://thumbnail.image.rakuten.co.jp/@0_mall/book/cabinet/6520/4534530036520.jpg?_ex=200x200","availability":"3","postageFlag":2,"limitedFlag":1,"reviewCount":8,"reviewAverage":"4.63","booksGenreId":"003206001/003206002/003206003/003206004/003206005"}},{"Item":{"title":"Angel Beats! 3【完全生産限定版】","titleKana":"エンジェルビーツ 3","artistName":"神谷浩史/櫻井浩美/花澤香菜/岸誠二","artistNameKana":"カミヤヒロシ/サクライヒロミ/ハナザワカナ/キシセイジ","label":"(株)アニプレックス","jan":"4534530037336","makerCode":"ANZB-6405/6","itemCaption":"人気ゲームのシナリオライターとして活躍してきた麻枝准が原作・脚本を担当した、ピーエーワークス制作の人生賛歌アニメ。何らかの理由で最期を迎えた少年が、死後の世界の学校で神への反抗を続ける少女に出会って……。","salesDate":"2010年08月25日","itemPrice":5921,"listPrice":6300,"discountRate":6,"discountPrice":379,"itemUrl":"http://books.rakuten.co.jp/rb/6485552/","affiliateUrl":"","smallImageUrl":"http://thumbnail.image.rakuten.co.jp/@0_mall/book/cabinet/7336/4534530037336.jpg?_ex=64x64","mediumImageUrl":"http://thumbnail.image.rakuten.co.jp/@0_mall/book/cabinet/7336/4534530037336.jpg?_ex=120x120","largeImageUrl":"http://thumbnail.image.rakuten.co.jp/@0_mall/book/cabinet/7336/4534530037336.jpg?_ex=200x200","availability":"3","postageFlag":2,"limitedFlag":1,"reviewCount":3,"reviewAverage":"3.67","booksGenreId":"003206001/003206002/003206003/003206004/003206005"}},{"Item":{"title":"劇団ゲキハロ 第10回公演 大正浪漫 ハイカラ探偵王 青いルビー殺人事件 DVD","titleKana":"ゲキダンゲキハロ ダイ10カイコウエン タイショウロウマン ハイカラタンテイオウ アオイルビーサツジンジケン ディーブイディー","artistName":"田中れいな/清水佐紀/須藤茉麻","artistNameKana":"タナカレイナ/シミズサキ/スドウマアサ","label":"(株)アップフロントワークス","jan":"4942463541590","makerCode":"EPBE-5415","itemCaption":"","salesDate":"2011年09月07日","itemPrice":3325,"listPrice":3990,"discountRate":16,"discountPrice":665,"itemUrl":"http://books.rakuten.co.jp/rb/11236181/","affiliateUrl":"","smallImageUrl":"http://thumbnail.image.rakuten.co.jp/@0_mall/book/cabinet/1590/4942463541590.jpg?_ex=64x64","mediumImageUrl":"http://thumbnail.image.rakuten.co.jp/@0_mall/book/cabinet/1590/4942463541590.jpg?_ex=120x120","largeImageUrl":"http://thumbnail.image.rakuten.co.jp/@0_mall/book/cabinet/1590/4942463541590.jpg?_ex=200x200","availability":"3","postageFlag":2,"limitedFlag":0,"reviewCount":1,"reviewAverage":"1.0","booksGenreId":"003207001001"}},{"Item":{"title":"Angel Beats! 7【完全生産限定版】【Blu-ray】","titleKana":"エンジェルビーツ 7","artistName":"神谷浩史/櫻井浩美/花澤香菜/岸誠二","artistNameKana":"カミヤヒロシ/サクライヒロミ/ハナザワカナ/キシセイジ","label":"(株)アニプレックス","jan":"4534530038210","makerCode":"ANZX-6413/4","itemCaption":"","salesDate":"2010年12月22日","itemPrice":6615,"listPrice":7350,"discountRate":10,"discountPrice":735,"itemUrl":"http://books.rakuten.co.jp/rb/6515609/","affiliateUrl":"","smallImageUrl":"http://thumbnail.image.rakuten.co.jp/@0_mall/book/cabinet/8210/4534530038210.jpg?_ex=64x64","mediumImageUrl":"http://thumbnail.image.rakuten.co.jp/@0_mall/book/cabinet/8210/4534530038210.jpg?_ex=120x120","largeImageUrl":"http://thumbnail.image.rakuten.co.jp/@0_mall/book/cabinet/8210/4534530038210.jpg?_ex=200x200","availability":"3","postageFlag":2,"limitedFlag":1,"reviewCount":6,"reviewAverage":"4.33","booksGenreId":"003206003/003215007/003215013"}},{"Item":{"title":"真澄あさか／Real Venu","titleKana":"マスミアサカリアルビーナス","artistName":"真澄あさか","artistNameKana":"マスミ　アサカ","label":"","jan":"4528703650125","makerCode":"","itemCaption":"","salesDate":"2010年02月06日","itemPrice":3591,"listPrice":3990,"discountRate":10,"discountPrice":399,"itemUrl":"http://books.rakuten.co.jp/rb/7700554/","affiliateUrl":"","smallImageUrl":"http://thumbnail.image.rakuten.co.jp/@0_mall/book/cabinet/noimage_01.gif?_ex=64x64","mediumImageUrl":"http://thumbnail.image.rakuten.co.jp/@0_mall/book/cabinet/noimage_01.gif?_ex=120x120","largeImageUrl":"http://thumbnail.image.rakuten.co.jp/@0_mall/book/cabinet/noimage_01.gif?_ex=200x200","availability":"4","postageFlag":2,"limitedFlag":0,"reviewCount":0,"reviewAverage":"0.0","booksGenreId":"003212"}},{"Item":{"title":"機動戦士ガンダム00 スペシャルエディション1 ソレスタルビーイング","titleKana":"キドウセンシガンダムダブルオー スペシャルエディション1 ソレスタルビーイング","artistName":"水島精二","artistNameKana":"ミズシマセイジ","label":"バンダイビジュアル(株)","jan":"4934569636546","makerCode":"BCBA-3654","itemCaption":"⇒【本】コミック版『機動戦士ガンダム00』シリーズはこちら","salesDate":"2009年10月27日","itemPrice":4536,"listPrice":5040,"discountRate":10,"discountPrice":504,"itemUrl":"http://books.rakuten.co.jp/rb/6122024/","affiliateUrl":"","smallImageUrl":"http://thumbnail.image.rakuten.co.jp/@0_mall/book/cabinet/6546/4934569636546.jpg?_ex=64x64","mediumImageUrl":"http://thumbnail.image.rakuten.co.jp/@0_mall/book/cabinet/6546/4934569636546.jpg?_ex=120x120","largeImageUrl":"http://thumbnail.image.rakuten.co.jp/@0_mall/book/cabinet/6546/4934569636546.jpg?_ex=200x200","availability":"3","postageFlag":2,"limitedFlag":0,"reviewCount":12,"reviewAverage":"3.75","booksGenreId":"003206001/003206002/003206003/003206004/003206005"}},{"Item":{"title":"Girls Dead Monster starring LiSA Tour 2010 Final -Keep The Angel Beats!-【Blu-ray】","titleKana":"ガールズ デッド モンスター スターリング リサ ツアー 2010 ファイナル キープ ザ エンジェル ビーツ","artistName":"Girls Dead Monster starring LiSA","artistNameKana":"ガールズデッドモンスタースターリングリサ","label":"(株)ビジュアルアーツ","jan":"4933032006640","makerCode":"KSLV-1/3","itemCaption":"【エントリー不要】こちらの商品はご購入でポイント6倍対象商品です。詳細はこちらブルーレイ購入で最大ポイント5倍キャンペーン開催中！今商品は【2011ブルーレイキャンペーン対象商品】です。キャンペーンエントリーページはコチラ","salesDate":"2011年06月01日","itemPrice":6426,"listPrice":7140,"discountRate":10,"discountPrice":714,"itemUrl":"http://books.rakuten.co.jp/rb/11101516/","affiliateUrl":"","smallImageUrl":"http://thumbnail.image.rakuten.co.jp/@0_mall/book/cabinet/noimage_01.gif?_ex=64x64","mediumImageUrl":"http://thumbnail.image.rakuten.co.jp/@0_mall/book/cabinet/noimage_01.gif?_ex=120x120","largeImageUrl":"http://thumbnail.image.rakuten.co.jp/@0_mall/book/cabinet/noimage_01.gif?_ex=200x200","availability":"3","postageFlag":2,"limitedFlag":1,"reviewCount":5,"reviewAverage":"5.0","booksGenreId":"003214"}},{"Item":{"title":"機動戦士ガンダム00 スペシャルエディション1 ソレスタルビーイング【UMD】","titleKana":"キドウセンシガンダムダブルオー スペシャルエディション1 ソレスタルビーイング","artistName":"水島精二","artistNameKana":"ミズシマセイジ","label":"バンダイビジュアル(株)","jan":"4934569411778","makerCode":"BCUA-177","itemCaption":"※本商品はUMDになります。DVDではありません。","salesDate":"2009年10月27日","itemPrice":1796,"listPrice":1995,"discountRate":10,"discountPrice":199,"itemUrl":"http://books.rakuten.co.jp/rb/6120671/","affiliateUrl":"","smallImageUrl":"http://thumbnail.image.rakuten.co.jp/@0_mall/book/cabinet/1778/4934569411778.jpg?_ex=64x64","mediumImageUrl":"http://thumbnail.image.rakuten.co.jp/@0_mall/book/cabinet/1778/4934569411778.jpg?_ex=120x120","largeImageUrl":"http://thumbnail.image.rakuten.co.jp/@0_mall/book/cabinet/1778/4934569411778.jpg?_ex=200x200","availability":"1","postageFlag":1,"limitedFlag":0,"reviewCount":0,"reviewAverage":"0.0","booksGenreId":"003206001/003206002/003206003/003206004/003206005"}},{"Item":{"title":"Angel Beats! 6","titleKana":"エンジェルビーツ 6","artistName":"神谷浩史/櫻井浩美/花澤香菜/岸誠二","artistNameKana":"カミヤヒロシ/サクライヒロミ/ハナザワカナ/キシセイジ","label":"(株)アニプレックス","jan":"4534530038272","makerCode":"ANSB-6411","itemCaption":"【エントリー不要】こちらの商品はご購入でポイント6倍対象商品です。詳細はこちら","salesDate":"2010年11月24日","itemPrice":4725,"listPrice":5250,"discountRate":10,"discountPrice":525,"itemUrl":"http://books.rakuten.co.jp/rb/6515606/","affiliateUrl":"","smallImageUrl":"http://thumbnail.image.rakuten.co.jp/@0_mall/book/cabinet/8272/4534530038272.jpg?_ex=64x64","mediumImageUrl":"http://thumbnail.image.rakuten.co.jp/@0_mall/book/cabinet/8272/4534530038272.jpg?_ex=120x120","largeImageUrl":"http://thumbnail.image.rakuten.co.jp/@0_mall/book/cabinet/8272/4534530038272.jpg?_ex=200x200","availability":"1","postageFlag":2,"limitedFlag":0,"reviewCount":1,"reviewAverage":"4.0","booksGenreId":"003206001/003206002/003206003/003206004/003206005"}},{"Item":{"title":"メルBのトータリー・フィット 4週間で理想のカラダを手に入れる!","titleKana":"メルビーノトータリー フィット ヨンシュウカンデリソウノカラダヲテニイレル","artistName":"メルB","artistNameKana":"メルビー","label":"日本コロムビア(株)","jan":"4988001464907","makerCode":"COBG-6006","itemCaption":"","salesDate":"2011年04月27日","itemPrice":3591,"listPrice":3990,"discountRate":10,"discountPrice":399,"itemUrl":"http://books.rakuten.co.jp/rb/6995487/","affiliateUrl":"","smallImageUrl":"http://thumbnail.image.rakuten.co.jp/@0_mall/book/cabinet/4907/4988001464907.jpg?_ex=64x64","mediumImageUrl":"http://thumbnail.image.rakuten.co.jp/@0_mall/book/cabinet/4907/4988001464907.jpg?_ex=120x120","largeImageUrl":"http://thumbnail.image.rakuten.co.jp/@0_mall/book/cabinet/4907/4988001464907.jpg?_ex=200x200","availability":"1","postageFlag":2,"limitedFlag":0,"reviewCount":1,"reviewAverage":"4.0","booksGenreId":"003214"}},{"Item":{"title":"Angel Beats! 3【完全生産限定版】【Blu-ray】","titleKana":"エンジェルビーツ 3","artistName":"神谷浩史/櫻井浩美/花澤香菜/岸誠二","artistNameKana":"カミヤヒロシ/サクライヒロミ/ハナザワカナ/キシセイジ","label":"(株)アニプレックス","jan":"4534530037329","makerCode":"ANZX-6405/6","itemCaption":"人気ゲームのシナリオライターとして活躍してきた麻枝准が原作・脚本を担当した、ピーエーワークス制作の人生賛歌アニメ。何らかの理由で最期を迎えた少年が、死後の世界の学校で神への反抗を続ける少女に出会って……。","salesDate":"2010年08月25日","itemPrice":6615,"listPrice":7350,"discountRate":10,"discountPrice":735,"itemUrl":"http://books.rakuten.co.jp/rb/6485551/","affiliateUrl":"","smallImageUrl":"http://thumbnail.image.rakuten.co.jp/@0_mall/book/cabinet/7329/4534530037329.jpg?_ex=64x64","mediumImageUrl":"http://thumbnail.image.rakuten.co.jp/@0_mall/book/cabinet/7329/4534530037329.jpg?_ex=120x120","largeImageUrl":"http://thumbnail.image.rakuten.co.jp/@0_mall/book/cabinet/7329/4534530037329.jpg?_ex=200x200","availability":"3","postageFlag":2,"limitedFlag":1,"reviewCount":6,"reviewAverage":"4.5","booksGenreId":"003206003/003215007/003215013"}},{"Item":{"title":"Angel Beats! 5","titleKana":"エンジェルビーツ 5","artistName":"神谷浩史/櫻井浩美/花澤香菜/岸誠二","artistNameKana":"カミヤヒロシ/サクライヒロミ/ハナザワカナ/キシセイジ","label":"(株)アニプレックス","jan":"4534530037428","makerCode":"ANSB-6409","itemCaption":" ⇒『AngelBeats!特集』はこちら！","salesDate":"2010年10月27日","itemPrice":4725,"listPrice":5250,"discountRate":10,"discountPrice":525,"itemUrl":"http://books.rakuten.co.jp/rb/6504555/","affiliateUrl":"","smallImageUrl":"http://thumbnail.image.rakuten.co.jp/@0_mall/book/cabinet/7428/4534530037428.jpg?_ex=64x64","mediumImageUrl":"http://thumbnail.image.rakuten.co.jp/@0_mall/book/cabinet/7428/4534530037428.jpg?_ex=120x120","largeImageUrl":"http://thumbnail.image.rakuten.co.jp/@0_mall/book/cabinet/7428/4534530037428.jpg?_ex=200x200","availability":"1","postageFlag":2,"limitedFlag":0,"reviewCount":1,"reviewAverage":"4.0","booksGenreId":"003206001/003206002/003206003/003206004/003206005"}},{"Item":{"title":"機動戦士ガンダム00 スペシャルエディション1 ソレスタルビーイング【Blu-ray】","titleKana":"キドウセンシガンダムダブルオー スペシャルエディション1 ソレスタルビーイング","artistName":"水島精二","artistNameKana":"ミズシマセイジ","label":"バンダイビジュアル(株)","jan":"4934569352125","makerCode":"BCXA-212","itemCaption":"2007〜2008年にかけてTBS系で放送された『機動戦士ガンダムOO』に新作カットを加え、一部新たにアフレコを行なった特別編集版全3部作の第1弾。西暦2307年を舞台に、ユニオン、人類革新連盟、AEUの超大国群がしのぎを削るさまを描く。","salesDate":"2009年10月27日","itemPrice":5481,"listPrice":6090,"discountRate":10,"discountPrice":609,"itemUrl":"http://books.rakuten.co.jp/rb/6122025/","affiliateUrl":"","smallImageUrl":"http://thumbnail.image.rakuten.co.jp/@0_mall/book/cabinet/2125/4934569352125.jpg?_ex=64x64","mediumImageUrl":"http://thumbnail.image.rakuten.co.jp/@0_mall/book/cabinet/2125/4934569352125.jpg?_ex=120x120","largeImageUrl":"http://thumbnail.image.rakuten.co.jp/@0_mall/book/cabinet/2125/4934569352125.jpg?_ex=200x200","availability":"1","postageFlag":2,"limitedFlag":0,"reviewCount":13,"reviewAverage":"4.08","booksGenreId":"003214"}},{"Item":{"title":"Angel Beats! 1【完全生産限定版】【Blu-ray】","titleKana":"エンジェルビーツ 1","artistName":"神谷浩史/櫻井浩美/花澤香菜/岸誠二","artistNameKana":"カミヤヒロシ/サクライヒロミ/ハナザワカナ/キシセイジ","label":"(株)アニプレックス","jan":"4534530036551","makerCode":"ANZX-6401/2","itemCaption":"人気ゲームのシナリオライターとして活躍してきた麻枝准が原作・脚本を担当した、ピーエーワークス制作の人生賛歌アニメ。何らかの理由で最期を迎えた少年が、死後の世界の学校で神への反抗を続ける少女に出会って……。","salesDate":"2010年06月23日","itemPrice":6615,"listPrice":7350,"discountRate":10,"discountPrice":735,"itemUrl":"http://books.rakuten.co.jp/rb/6442479/","affiliateUrl":"","smallImageUrl":"http://thumbnail.image.rakuten.co.jp/@0_mall/book/cabinet/6551/4534530036551.jpg?_ex=64x64","mediumImageUrl":"http://thumbnail.image.rakuten.co.jp/@0_mall/book/cabinet/6551/4534530036551.jpg?_ex=120x120","largeImageUrl":"http://thumbnail.image.rakuten.co.jp/@0_mall/book/cabinet/6551/4534530036551.jpg?_ex=200x200","availability":"1","postageFlag":2,"limitedFlag":1,"reviewCount":9,"reviewAverage":"4.22","booksGenreId":"003206003/003215007/003215013"}}],"GenreInformation":[]}