{"count":214,"page":1,"first":1,"last":30,"hits":30,"carrier":0,"pageCount":8,"Items":[{"Item":{"title":"Letters from Ruby","titleKana":"","japaneseTitle":"","author":"Adam Thomas","authorKana":"","publisherName":"ABINGDON PR","isbn":"9781426741371","itemCaption":"","salesDate":"2013年","itemPrice":1471,"listPrice":2373,"discountRate":38,"discountPrice":902,"itemUrl":"http://books.rakuten.co.jp/rb/12423044/","affiliateUrl":"","smallImageUrl":"http://thumbnail.image.rakuten.co.jp/@0_mall/book/cabinet/1371/9781426741371.jpg?_ex=64x64","mediumImageUrl":"http://thumbnail.image.rakuten.co.jp/@0_mall/book/cabinet/1371/9781426741371.jpg?_ex=120x120","largeImageUrl":"http://thumbnail.image.rakuten.co.jp/@0_mall/book/cabinet/1371/9781426741371.jpg?_ex=200x200","availability":"4","postageFlag":0,"limitedFlag":0,"reviewCount":0,"reviewAverage":"0.0","booksGenreId":"005402002"}},{"Item":{"title":"Ruby Under a Microscope: An Illustrated Guide to Ruby Internals","titleKana":"","japaneseTitle":"","author":"Pat Shaughnessy","authorKana":"","publisherName":"NO STARCH PR","isbn":"9781593275273","itemCaption":"","salesDate":"2013年","itemPrice":3906,"listPrice":6300,"discountRate":38,"discountPrice":2394,"itemUrl":"http://books.rakuten.co.jp/rb/12568648/","affiliateUrl":"","smallImageUrl":"http://thumbnail.image.rakuten.co.jp/@0_mall/book/cabinet/5273/9781593275273.jpg?_ex=64x64","mediumImageUrl":"http://thumbnail.image.rakuten.co.jp/@0_mall/book/cabinet/5273/9781593275273.jpg?_ex=120x120","largeImageUrl":"http://thumbnail.image.rakuten.co.jp/@0_mall/book/cabinet/5273/9781593275273.jpg?_ex=200x200","availability":"4","postageFlag":2,"limitedFlag":0,"reviewCount":0,"reviewAverage":"0.0","booksGenreId":"005405001"}},{"Item":{"title":"Max & Ruby Max Goes Fishing","titleKana":"","japaneseTitle":"","author":"Unknown","authorKana":"","publisherName":"GROSSET & DUNLAP INC","isbn":"9780448464824","itemCaption":"In this storybook based on a TV episode, Ruby and the Bunny Scouts are working to get their canoeing badges. Meanwhile, Max is fishing with his toy duck. When Ruby's canoe is accidentally let loose, Max saves the day by using his fishing pole to bring it back! Full color.","salesDate":"2013年","itemPrice":546,"listPrice":882,"discountRate":38,"discountPrice":336,"itemUrl":"http://books.rakuten.co.jp/rb/12317174/","affiliateUrl":"","smallImageUrl":"http://thumbnail.image.rakuten.co.jp/@0_mall/book/cabinet/4824/9780448464824.jpg?_ex=64x64","mediumImageUrl":"http://thumbnail.image.rakuten.co.jp/@0_mall/book/cabinet/4824/9780448464824.jpg?_ex=120x120","largeImageUrl":"http://thumbnail.image.rakuten.co.jp/@0_mall/book/cabinet/4824/9780448464824.jpg?_ex=200x200","availability":"4","postageFlag":0,"limitedFlag":0,"reviewCount":0,"reviewAverage":"0.0","booksGenreId":"005407002"}},{"Item":{"title":"Ruby & Sapphire","titleKana":"","japaneseTitle":"","author":"Hidenori Kusaka^_#^Mato","authorKana":"","publisherName":"VIZ LLC","isbn":"9781421535494","itemCaption":"Everyone's favorite Pokmon video game characters jump from the screen on intothe pages of this action-packed manga adventure. Full color.","salesDate":"2013年","itemPrice":977,"listPrice":1575,"discountRate":38,"discountPrice":598,"itemUrl":"http://books.rakuten.co.jp/rb/12219326/","affiliateUrl":"","smallImageUrl":"http://thumbnail.image.rakuten.co.jp/@0_mall/book/cabinet/5494/9781421535494.jpg?_ex=64x64","mediumImageUrl":"http://thumbnail.image.rakuten.co.jp/@0_mall/book/cabinet/5494/9781421535494.jpg?_ex=120x120","largeImageUrl":"http://thumbnail.image.rakuten.co.jp/@0_mall/book/cabinet/5494/9781421535494.jpg?_ex=200x200","availability":"4","postageFlag":0,"limitedFlag":0,"reviewCount":0,"reviewAverage":"0.0","booksGenreId":"005407002"}},{"Item":{"title":"Max & Ruby Max Goes Fishing","titleKana":"","japaneseTitle":"","author":"Unknown","authorKana":"","publisherName":"SAN VAL INC","isbn":"9780606316927","itemCaption":"","salesDate":"2013年","itemPrice":1327,"listPrice":2142,"discountRate":38,"discountPrice":815,"itemUrl":"http://books.rakuten.co.jp/rb/12394419/","affiliateUrl":"","smallImageUrl":"http://thumbnail.image.rakuten.co.jp/@0_mall/book/cabinet/6927/9780606316927.jpg?_ex=64x64","mediumImageUrl":"http://thumbnail.image.rakuten.co.jp/@0_mall/book/cabinet/6927/9780606316927.jpg?_ex=120x120","largeImageUrl":"http://thumbnail.image.rakuten.co.jp/@0_mall/book/cabinet/6927/9780606316927.jpg?_ex=200x200","availability":"4","postageFlag":0,"limitedFlag":0,"reviewCount":0,"reviewAverage":"0.0","booksGenreId":"005407002"}},{"Item":{"title":"Ruby & Sapphire","titleKana":"","japaneseTitle":"","author":"Hidenori Kusaka^_#^Satoshi Yamamoto","authorKana":"","publisherName":"VIZ LLC","isbn":"9781421535517","itemCaption":"On an accidental seafaring adventure in a submarine, Ruby discovers something mysterious deep beneath the waves. Then fishing nets him another Pokmon. But is his growing team bringing him closer toNor farther fromNhis dream?","salesDate":"2013年","itemPrice":977,"listPrice":1575,"discountRate":38,"discountPrice":598,"itemUrl":"http://books.rakuten.co.jp/rb/12370521/","affiliateUrl":"","smallImageUrl":"http://thumbnail.image.rakuten.co.jp/@0_mall/book/cabinet/5517/9781421535517.jpg?_ex=64x64","mediumImageUrl":"http://thumbnail.image.rakuten.co.jp/@0_mall/book/cabinet/5517/9781421535517.jpg?_ex=120x120","largeImageUrl":"http://thumbnail.image.rakuten.co.jp/@0_mall/book/cabinet/5517/9781421535517.jpg?_ex=200x200","availability":"4","postageFlag":0,"limitedFlag":0,"reviewCount":0,"reviewAverage":"0.0","booksGenreId":"005407002"}},{"Item":{"title":"Hello, My Name Is Ruby","titleKana":"","japaneseTitle":"","author":"Philip Christian Stead","authorKana":"","publisherName":"ROARING BROOK PR","isbn":"9781596438095","itemCaption":"Ruby, a very small bird in a very big world, is looking for a friend, so she introduces herself in this stunning new picture book by Caldecott Medalist Stead (\"A Sick Day for Amos McGee\"). Full color.","salesDate":"2013年","itemPrice":1666,"listPrice":2688,"discountRate":38,"discountPrice":1022,"itemUrl":"http://books.rakuten.co.jp/rb/12449679/","affiliateUrl":"","smallImageUrl":"http://thumbnail.image.rakuten.co.jp/@0_mall/book/cabinet/8095/9781596438095.jpg?_ex=64x64","mediumImageUrl":"http://thumbnail.image.rakuten.co.jp/@0_mall/book/cabinet/8095/9781596438095.jpg?_ex=120x120","largeImageUrl":"http://thumbnail.image.rakuten.co.jp/@0_mall/book/cabinet/8095/9781596438095.jpg?_ex=200x200","availability":"4","postageFlag":1,"limitedFlag":0,"reviewCount":0,"reviewAverage":"0.0","booksGenreId":"005407002"}},{"Item":{"title":"Doodle and Draw with Max & Ruby!","titleKana":"","japaneseTitle":"","author":"Grosset & Dunlap","authorKana":"","publisherName":"GROSSET & DUNLAP INC","isbn":"9780448467443","itemCaption":"","salesDate":"2013年","itemPrice":690,"listPrice":1113,"discountRate":38,"discountPrice":423,"itemUrl":"http://books.rakuten.co.jp/rb/12502062/","affiliateUrl":"","smallImageUrl":"http://thumbnail.image.rakuten.co.jp/@0_mall/book/cabinet/7443/9780448467443.jpg?_ex=64x64","mediumImageUrl":"http://thumbnail.image.rakuten.co.jp/@0_mall/book/cabinet/7443/9780448467443.jpg?_ex=120x120","largeImageUrl":"http://thumbnail.image.rakuten.co.jp/@0_mall/book/cabinet/7443/9780448467443.jpg?_ex=200x200","availability":"4","postageFlag":0,"limitedFlag":0,"reviewCount":0,"reviewAverage":"0.0","booksGenreId":"005407002"}},{"Item":{"title":"Ruby Gets Crafty","titleKana":"","japaneseTitle":"","author":"Unknown","authorKana":"","publisherName":"GROSSET & DUNLAP INC","isbn":"9780448467429","itemCaption":"","salesDate":"2013年","itemPrice":546,"listPrice":882,"discountRate":38,"discountPrice":336,"itemUrl":"http://books.rakuten.co.jp/rb/12502821/","affiliateUrl":"","smallImageUrl":"http://thumbnail.image.rakuten.co.jp/@0_mall/book/cabinet/7429/9780448467429.jpg?_ex=64x64","mediumImageUrl":"http://thumbnail.image.rakuten.co.jp/@0_mall/book/cabinet/7429/9780448467429.jpg?_ex=120x120","largeImageUrl":"http://thumbnail.image.rakuten.co.jp/@0_mall/book/cabinet/7429/9780448467429.jpg?_ex=200x200","availability":"4","postageFlag":0,"limitedFlag":0,"reviewCount":0,"reviewAverage":"0.0","booksGenreId":"005407002"}},{"Item":{"title":"Ruby Redfort Look Into My Eyes","titleKana":"","japaneseTitle":"","author":"Lauren Child","authorKana":"","publisherName":"CANDLEWICK BOOKS","isbn":"9780763662578","itemCaption":"Everyone knows that Clarice Bean is keen on the Ruby Redfort books. Now in her own starring role, Ruby, a genius code-cracker and daring detective, along with her sidekick butler, Hitch, work for a secret crime-busting organization called Spectrum. Ruby gets into lots of scrapes with evil villains, but she's always ice-cool in a crisis.","salesDate":"2013年","itemPrice":781,"listPrice":1260,"discountRate":38,"discountPrice":479,"itemUrl":"http://books.rakuten.co.jp/rb/12267058/","affiliateUrl":"","smallImageUrl":"http://thumbnail.image.rakuten.co.jp/@0_mall/book/cabinet/2578/9780763662578.jpg?_ex=64x64","mediumImageUrl":"http://thumbnail.image.rakuten.co.jp/@0_mall/book/cabinet/2578/9780763662578.jpg?_ex=120x120","largeImageUrl":"http://thumbnail.image.rakuten.co.jp/@0_mall/book/cabinet/2578/9780763662578.jpg?_ex=200x200","availability":"4","postageFlag":0,"limitedFlag":0,"reviewCount":0,"reviewAverage":"0.0","booksGenreId":"005407002"}},{"Item":{"title":"Max & Ruby's Big Box of Fun","titleKana":"","japaneseTitle":"","author":"Rosemary Wells^_#^Unknown","authorKana":"","publisherName":"GROSSET & DUNLAP INC","isbn":"9780448464640","itemCaption":"A perfect gift for Max & Ruby fans, this set includes three previously published titles (two 24-page 8 x 8s and a 32-page Penguin Young Reader), two paint-with-water pictures, stickers, and mini game cards, sure to provide hours of entertainment. Consumable.","salesDate":"2013年","itemPrice":1666,"listPrice":2688,"discountRate":38,"discountPrice":1022,"itemUrl":"http://books.rakuten.co.jp/rb/12170382/","affiliateUrl":"","smallImageUrl":"http://thumbnail.image.rakuten.co.jp/@0_mall/book/cabinet/4640/9780448464640.jpg?_ex=64x64","mediumImageUrl":"http://thumbnail.image.rakuten.co.jp/@0_mall/book/cabinet/4640/9780448464640.jpg?_ex=120x120","largeImageUrl":"http://thumbnail.image.rakuten.co.jp/@0_mall/book/cabinet/4640/9780448464640.jpg?_ex=200x200","availability":"4","postageFlag":1,"limitedFlag":0,"reviewCount":0,"reviewAverage":"0.0","booksGenreId":"005407002"}},{"Item":{"title":"RUBY LEARNS TO SWIM(H)","titleKana":"","japaneseTitle":"","author":"PHILLIP/AINSLIE GWYNNE, TAMSIN","authorKana":"","publisherName":"OTHERS","isbn":"9781742377506","itemCaption":"","salesDate":"2013年","itemPrice":1666,"listPrice":2688,"discountRate":38,"discountPrice":1022,"itemUrl":"http://books.rakuten.co.jp/rb/12396281/","affiliateUrl":"","smallImageUrl":"http://thumbnail.image.rakuten.co.jp/@0_mall/book/cabinet/7506/9781742377506.jpg?_ex=64x64","mediumImageUrl":"http://thumbnail.image.rakuten.co.jp/@0_mall/book/cabinet/7506/9781742377506.jpg?_ex=120x120","largeImageUrl":"http://thumbnail.image.rakuten.co.jp/@0_mall/book/cabinet/7506/9781742377506.jpg?_ex=200x200","availability":"4","postageFlag":1,"limitedFlag":0,"reviewCount":0,"reviewAverage":"0.0","booksGenreId":"005407002"}},{"Item":{"title":"Making Waves: The Story of Ruby Payne-Scott: Australian Pioneer Radio Astronomer","titleKana":"","japaneseTitle":"","author":"W. Miller Goss^_#^M. Goss^_#^Miller Goss","authorKana":"","publisherName":"SPRINGER PG","isbn":"9783642357510","itemCaption":"","salesDate":"2013年","itemPrice":6770,"listPrice":10920,"discountRate":38,"discountPrice":4150,"itemUrl":"http://books.rakuten.co.jp/rb/12461230/","affiliateUrl":"","smallImageUrl":"http://thumbnail.image.rakuten.co.jp/@0_mall/book/cabinet/noimage_01.gif?_ex=64x64","mediumImageUrl":"http://thumbnail.image.rakuten.co.jp/@0_mall/book/cabinet/noimage_01.gif?_ex=120x120","largeImageUrl":"http://thumbnail.image.rakuten.co.jp/@0_mall/book/cabinet/noimage_01.gif?_ex=200x200","availability":"4","postageFlag":2,"limitedFlag":0,"reviewCount":0,"reviewAverage":"0.0","booksGenreId":"005405005"}},{"Item":{"title":"The Story of Ruby Lee: 2nd Edition","titleKana":"","japaneseTitle":"","author":"Joy Donnini","authorKana":"","publisherName":"TATE PUB","isbn":"9781625632449","itemCaption":"","salesDate":"2013年","itemPrice":1953,"listPrice":3150,"discountRate":38,"discountPrice":1197,"itemUrl":"http://books.rakuten.co.jp/rb/12308630/","affiliateUrl":"","smallImageUrl":"http://thumbnail.image.rakuten.co.jp/@0_mall/book/cabinet/2449/9781625632449.jpg?_ex=64x64","mediumImageUrl":"http://thumbnail.image.rakuten.co.jp/@0_mall/book/cabinet/2449/9781625632449.jpg?_ex=120x120","largeImageUrl":"http://thumbnail.image.rakuten.co.jp/@0_mall/book/cabinet/2449/9781625632449.jpg?_ex=200x200","availability":"4","postageFlag":1,"limitedFlag":0,"reviewCount":0,"reviewAverage":"0.0","booksGenreId":"005407002"}},{"Item":{"title":"Ruby's Terrible Secret","titleKana":"","japaneseTitle":"","author":"Janet Lorimer","authorKana":"","publisherName":"SADDLEBACK PUB INC (CA)","isbn":"9781622507603","itemCaption":"","salesDate":"2013年","itemPrice":1080,"listPrice":1743,"discountRate":38,"discountPrice":663,"itemUrl":"http://books.rakuten.co.jp/rb/12421095/","affiliateUrl":"","smallImageUrl":"http://thumbnail.image.rakuten.co.jp/@0_mall/book/cabinet/noimage_01.gif?_ex=64x64","mediumImageUrl":"http://thumbnail.image.rakuten.co.jp/@0_mall/book/cabinet/noimage_01.gif?_ex=120x120","largeImageUrl":"http://thumbnail.image.rakuten.co.jp/@0_mall/book/cabinet/noimage_01.gif?_ex=200x200","availability":"4","postageFlag":0,"limitedFlag":0,"reviewCount":0,"reviewAverage":"0.0","booksGenreId":"005407002"}},{"Item":{"title":"El Hermanito de Ruby = Ruby's Baby Brother","titleKana":"","japaneseTitle":"","author":"Kathryn White^_#^Miriam Latimer","authorKana":"","publisherName":"BAREFOOT BOOKS","isbn":"9781782850267","itemCaption":"","salesDate":"2013年","itemPrice":781,"listPrice":1260,"discountRate":38,"discountPrice":479,"itemUrl":"http://books.rakuten.co.jp/rb/12425789/","affiliateUrl":"","smallImageUrl":"http://thumbnail.image.rakuten.co.jp/@0_mall/book/cabinet/0267/9781782850267.jpg?_ex=64x64","mediumImageUrl":"http://thumbnail.image.rakuten.co.jp/@0_mall/book/cabinet/0267/9781782850267.jpg?_ex=120x120","largeImageUrl":"http://thumbnail.image.rakuten.co.jp/@0_mall/book/cabinet/0267/9781782850267.jpg?_ex=200x200","availability":"4","postageFlag":0,"limitedFlag":0,"reviewCount":0,"reviewAverage":"0.0","booksGenreId":"005407002"}},{"Item":{"title":"Ruby's Road: A True Story","titleKana":"","japaneseTitle":"","author":"Patrick Bettendorf","authorKana":"","publisherName":"TASORA BOOKS","isbn":"9781934690673","itemCaption":"","salesDate":"2013年","itemPrice":1666,"listPrice":2688,"discountRate":38,"discountPrice":1022,"itemUrl":"http://books.rakuten.co.jp/rb/12441128/","affiliateUrl":"","smallImageUrl":"http://thumbnail.image.rakuten.co.jp/@0_mall/book/cabinet/0673/9781934690673.jpg?_ex=64x64","mediumImageUrl":"http://thumbnail.image.rakuten.co.jp/@0_mall/book/cabinet/0673/9781934690673.jpg?_ex=120x120","largeImageUrl":"http://thumbnail.image.rakuten.co.jp/@0_mall/book/cabinet/0673/9781934690673.jpg?_ex=200x200","availability":"4","postageFlag":1,"limitedFlag":0,"reviewCount":0,"reviewAverage":"0.0","booksGenreId":"005404007"}},{"Item":{"title":"Ruby's Inn at Bryce Canyon","titleKana":"","japaneseTitle":"","author":"A. Jean Seiler","authorKana":"","publisherName":"ARCADIA PUB (SC)","isbn":"9780738599953","itemCaption":"","salesDate":"2013年","itemPrice":2148,"listPrice":3465,"discountRate":38,"discountPrice":1317,"itemUrl":"http://books.rakuten.co.jp/rb/12340929/","affiliateUrl":"","smallImageUrl":"http://thumbnail.image.rakuten.co.jp/@0_mall/book/cabinet/9953/9780738599953.jpg?_ex=64x64","mediumImageUrl":"http://thumbnail.image.rakuten.co.jp/@0_mall/book/cabinet/9953/9780738599953.jpg?_ex=120x120","largeImageUrl":"http://thumbnail.image.rakuten.co.jp/@0_mall/book/cabinet/9953/9780738599953.jpg?_ex=200x200","availability":"4","postageFlag":1,"limitedFlag":0,"reviewCount":0,"reviewAverage":"0.0","booksGenreId":"005406001"}},{"Item":{"title":"Max & Ruby's Trick or Treat","titleKana":"","japaneseTitle":"","author":"Unknown","authorKana":"","publisherName":"GROSSET & DUNLAP INC","isbn":"9780448464817","itemCaption":"Fans can play lots of Halloween games with Max and Ruby in this color and activity book! They can practice writing words, spot the differences, match shapes, connect-the-dots, and much more. Includes punch-out paper dolls of Max and Ruby in costumes and a sticker sheet. Full color. Consumable.","salesDate":"2013年","itemPrice":690,"listPrice":1113,"discountRate":38,"discountPrice":423,"itemUrl":"http://books.rakuten.co.jp/rb/12425409/","affiliateUrl":"","smallImageUrl":"http://thumbnail.image.rakuten.co.jp/@0_mall/book/cabinet/4817/9780448464817.jpg?_ex=64x64","mediumImageUrl":"http://thumbnail.image.rakuten.co.jp/@0_mall/book/cabinet/4817/9780448464817.jpg?_ex=120x120","largeImageUrl":"http://thumbnail.image.rakuten.co.jp/@0_mall/book/cabinet/4817/9780448464817.jpg?_ex=200x200","availability":"4","postageFlag":0,"limitedFlag":0,"reviewCount":0,"reviewAverage":"0.0","booksGenreId":"005407002"}},{"Item":{"title":"If You Give a Rake a Ruby","titleKana":"","japaneseTitle":"","author":"Shana Galen^_#^Lucy Rivers","authorKana":"","publisherName":"TANTOR MEDIA INC","isbn":"9781452642161","itemCaption":"","salesDate":"2013年","itemPrice":8203,"listPrice":13230,"discountRate":38,"discountPrice":5027,"itemUrl":"http://books.rakuten.co.jp/rb/12274172/","affiliateUrl":"","smallImageUrl":"http://thumbnail.image.rakuten.co.jp/@0_mall/book/cabinet/2161/9781452642161.jpg?_ex=64x64","mediumImageUrl":"http://thumbnail.image.rakuten.co.jp/@0_mall/book/cabinet/2161/9781452642161.jpg?_ex=120x120","largeImageUrl":"http://thumbnail.image.rakuten.co.jp/@0_mall/book/cabinet/2161/9781452642161.jpg?_ex=200x200","availability":"4","postageFlag":2,"limitedFlag":0,"reviewCount":0,"reviewAverage":"0.0","booksGenreId":"005402002"}},{"Item":{"title":"Ruby & Sapphire","titleKana":"","japaneseTitle":"","author":"Hidenori Kusaka^_#^Satoshi Yamamoto","authorKana":"","publisherName":"VIZ LLC","isbn":"9781421535500","itemCaption":"A new collection of adventures inspired by the bestselling Pokmon video games! Everyone's favorite Pokmon game characters jump out of the screen into the pages of this action-packed manga! 5 x 7 1/2.","salesDate":"2013年","itemPrice":977,"listPrice":1575,"discountRate":38,"discountPrice":598,"itemUrl":"http://books.rakuten.co.jp/rb/12310695/","affiliateUrl":"","smallImageUrl":"http://thumbnail.image.rakuten.co.jp/@0_mall/book/cabinet/5500/9781421535500.jpg?_ex=64x64","mediumImageUrl":"http://thumbnail.image.rakuten.co.jp/@0_mall/book/cabinet/5500/9781421535500.jpg?_ex=120x120","largeImageUrl":"http://thumbnail.image.rakuten.co.jp/@0_mall/book/cabinet/5500/9781421535500.jpg?_ex=200x200","availability":"4","postageFlag":0,"limitedFlag":0,"reviewCount":0,"reviewAverage":"0.0","booksGenreId":"005407002"}},{"Item":{"title":"The Red Ruby","titleKana":"","japaneseTitle":"","author":"Lars Jakobsen^_#^Lars Jakobsen","authorKana":"","publisherName":"GRAPHIC UNIVERSE","isbn":"9781467707299","itemCaption":"","salesDate":"2013年","itemPrice":690,"listPrice":1113,"discountRate":38,"discountPrice":423,"itemUrl":"http://books.rakuten.co.jp/rb/12164396/","affiliateUrl":"","smallImageUrl":"http://thumbnail.image.rakuten.co.jp/@0_mall/book/cabinet/7299/9781467707299.jpg?_ex=64x64","mediumImageUrl":"http://thumbnail.image.rakuten.co.jp/@0_mall/book/cabinet/7299/9781467707299.jpg?_ex=120x120","largeImageUrl":"http://thumbnail.image.rakuten.co.jp/@0_mall/book/cabinet/7299/9781467707299.jpg?_ex=200x200","availability":"4","postageFlag":0,"limitedFlag":0,"reviewCount":0,"reviewAverage":"0.0","booksGenreId":"005407002"}},{"Item":{"title":"Silly Bunny Tales","titleKana":"","japaneseTitle":"","author":"Grosset & Dunlap","authorKana":"","publisherName":"GROSSET & DUNLAP INC","isbn":"9780448463087","itemCaption":"This storybook includes three stories based on episodes of the \"Max & Ruby\" TV show. In \"Picture Perfect,\" Max makes the perfect picture for Grandma. In \"Ruby's Amazing Maze,\" Max helps Ruby draw a fun maze. And in \"Ruby's Art Stand,\" Max helps Ruby and Louise sell their art by creating sun hats out of their paintings! Full color.","salesDate":"2013年","itemPrice":637,"listPrice":1029,"discountRate":38,"discountPrice":392,"itemUrl":"http://books.rakuten.co.jp/rb/12170402/","affiliateUrl":"","smallImageUrl":"http://thumbnail.image.rakuten.co.jp/@0_mall/book/cabinet/3087/9780448463087.jpg?_ex=64x64","mediumImageUrl":"http://thumbnail.image.rakuten.co.jp/@0_mall/book/cabinet/3087/9780448463087.jpg?_ex=120x120","largeImageUrl":"http://thumbnail.image.rakuten.co.jp/@0_mall/book/cabinet/3087/9780448463087.jpg?_ex=200x200","availability":"4","postageFlag":0,"limitedFlag":0,"reviewCount":0,"reviewAverage":"0.0","booksGenreId":"005407002"}},{"Item":{"title":"Red Ruby Heart in a Cold Blue Sea","titleKana":"","japaneseTitle":"","author":"Morgan Callan Rogers","authorKana":"","publisherName":"PLUME","isbn":"9780452298637","itemCaption":"In 1963, 12-year-old Florine enjoys an idyllic childhood in small-town MaineNuntil her beloved mother vanishes. Untethered and adrift in the wake of her disappearance, Florine finds her once-cherished joys suddenly hollow.","salesDate":"2013年","itemPrice":1562,"listPrice":2520,"discountRate":38,"discountPrice":958,"itemUrl":"http://books.rakuten.co.jp/rb/12328716/","affiliateUrl":"","smallImageUrl":"http://thumbnail.image.rakuten.co.jp/@0_mall/book/cabinet/8637/9780452298637.jpg?_ex=64x64","mediumImageUrl":"http://thumbnail.image.rakuten.co.jp/@0_mall/book/cabinet/8637/9780452298637.jpg?_ex=120x120","largeImageUrl":"http://thumbnail.image.rakuten.co.jp/@0_mall/book/cabinet/8637/9780452298637.jpg?_ex=200x200","availability":"4","postageFlag":0,"limitedFlag":0,"reviewCount":0,"reviewAverage":"0.0","booksGenreId":"005402002"}},{"Item":{"title":"If You Give a Rake a Ruby","titleKana":"","japaneseTitle":"","author":"Shana Galen","authorKana":"","publisherName":"SOURCEBOOK TRADE","isbn":"9781402269769","itemCaption":"Fallon, the Marchioness of Mystery, finds herself in a mess of seduction and scandal when she is blackmailed into helping the handsome but dangerous spy Warick Fitzhugh. He is out to hunt down the notorious crime lord who is responsible for the deaths of his fellow spies, and she is the only one who can help. Original.","salesDate":"2013年","itemPrice":781,"listPrice":1260,"discountRate":38,"discountPrice":479,"itemUrl":"http://books.rakuten.co.jp/rb/12222452/","affiliateUrl":"","smallImageUrl":"http://thumbnail.image.rakuten.co.jp/@0_mall/book/cabinet/9769/9781402269769.jpg?_ex=64x64","mediumImageUrl":"http://thumbnail.image.rakuten.co.jp/@0_mall/book/cabinet/9769/9781402269769.jpg?_ex=120x120","largeImageUrl":"http://thumbnail.image.rakuten.co.jp/@0_mall/book/cabinet/9769/9781402269769.jpg?_ex=200x200","availability":"4","postageFlag":0,"limitedFlag":0,"reviewCount":0,"reviewAverage":"0.0","booksGenreId":"005402002"}},{"Item":{"title":"Ruby Redfort Take Your Last Breath","titleKana":"","japaneseTitle":"","author":"Lauren Child^_#^Lauren Child","authorKana":"","publisherName":"CANDLEWICK BOOKS","isbn":"9780763654689","itemCaption":"","salesDate":"2013年","itemPrice":1666,"listPrice":2688,"discountRate":38,"discountPrice":1022,"itemUrl":"http://books.rakuten.co.jp/rb/12319357/","affiliateUrl":"","smallImageUrl":"http://thumbnail.image.rakuten.co.jp/@0_mall/book/cabinet/4689/9780763654689.jpg?_ex=64x64","mediumImageUrl":"http://thumbnail.image.rakuten.co.jp/@0_mall/book/cabinet/4689/9780763654689.jpg?_ex=120x120","largeImageUrl":"http://thumbnail.image.rakuten.co.jp/@0_mall/book/cabinet/4689/9780763654689.jpg?_ex=200x200","availability":"4","postageFlag":1,"limitedFlag":0,"reviewCount":0,"reviewAverage":"0.0","booksGenreId":"005407002"}},{"Item":{"title":"Ruby's Baby Brother","titleKana":"","japaneseTitle":"","author":"Kathryn White^_#^Miriam Latimer","authorKana":"","publisherName":"BAREFOOT BOOKS","isbn":"9781846869501","itemCaption":"","salesDate":"2013年","itemPrice":781,"listPrice":1260,"discountRate":38,"discountPrice":479,"itemUrl":"http://books.rakuten.co.jp/rb/12425259/","affiliateUrl":"","smallImageUrl":"http://thumbnail.image.rakuten.co.jp/@0_mall/book/cabinet/9501/9781846869501.jpg?_ex=64x64","mediumImageUrl":"http://thumbnail.image.rakuten.co.jp/@0_mall/book/cabinet/9501/9781846869501.jpg?_ex=120x120","largeImageUrl":"http://thumbnail.image.rakuten.co.jp/@0_mall/book/cabinet/9501/9781846869501.jpg?_ex=200x200","availability":"4","postageFlag":0,"limitedFlag":0,"reviewCount":0,"reviewAverage":"0.0","booksGenreId":"005407002"}},{"Item":{"title":"The Red Ruby","titleKana":"","japaneseTitle":"","author":"Lars Jakobsen","authorKana":"","publisherName":"GRAPHIC UNIVERSE","isbn":"9780761379140","itemCaption":"","salesDate":"2013年","itemPrice":4010,"listPrice":6468,"discountRate":38,"discountPrice":2458,"itemUrl":"http://books.rakuten.co.jp/rb/12163463/","affiliateUrl":"","smallImageUrl":"http://thumbnail.image.rakuten.co.jp/@0_mall/book/cabinet/9140/9780761379140.jpg?_ex=64x64","mediumImageUrl":"http://thumbnail.image.rakuten.co.jp/@0_mall/book/cabinet/9140/9780761379140.jpg?_ex=120x120","largeImageUrl":"http://thumbnail.image.rakuten.co.jp/@0_mall/book/cabinet/9140/9780761379140.jpg?_ex=200x200","availability":"4","postageFlag":2,"limitedFlag":0,"reviewCount":0,"reviewAverage":"0.0","booksGenreId":"005407002"}},{"Item":{"title":"Ruby's Baby Brother","titleKana":"","japaneseTitle":"","author":"Kathryn White^_#^Miriam Latimer","authorKana":"","publisherName":"BAREFOOT BOOKS","isbn":"9781846868641","itemCaption":"","salesDate":"2013年","itemPrice":1666,"listPrice":2688,"discountRate":38,"discountPrice":1022,"itemUrl":"http://books.rakuten.co.jp/rb/12425258/","affiliateUrl":"","smallImageUrl":"http://thumbnail.image.rakuten.co.jp/@0_mall/book/cabinet/8641/9781846868641.jpg?_ex=64x64","mediumImageUrl":"http://thumbnail.image.rakuten.co.jp/@0_mall/book/cabinet/8641/9781846868641.jpg?_ex=120x120","largeImageUrl":"http://thumbnail.image.rakuten.co.jp/@0_mall/book/cabinet/8641/9781846868641.jpg?_ex=200x200","availability":"4","postageFlag":1,"limitedFlag":0,"reviewCount":0,"reviewAverage":"0.0","booksGenreId":"005407002"}},{"Item":{"title":"Ruby's Tale: A True Rags to Riches Story","titleKana":"","japaneseTitle":"","author":"Patrick Bettendorf","authorKana":"","publisherName":"TASORA BOOKS","isbn":"9781934690666","itemCaption":"","salesDate":"2013年","itemPrice":1666,"listPrice":2688,"discountRate":38,"discountPrice":1022,"itemUrl":"http://books.rakuten.co.jp/rb/12423341/","affiliateUrl":"","smallImageUrl":"http://thumbnail.image.rakuten.co.jp/@0_mall/book/cabinet/0666/9781934690666.jpg?_ex=64x64","mediumImageUrl":"http://thumbnail.image.rakuten.co.jp/@0_mall/book/cabinet/0666/9781934690666.jpg?_ex=120x120","largeImageUrl":"http://thumbnail.image.rakuten.co.jp/@0_mall/book/cabinet/0666/9781934690666.jpg?_ex=200x200","availability":"4","postageFlag":1,"limitedFlag":0,"reviewCount":0,"reviewAverage":"0.0","booksGenreId":"005404007"}}],"GenreInformation":[]}