{"count":15864,"page":1,"first":1,"last":30,"hits":30,"carrier":0,"pageCount":100,"Items":[{"Item":{"title":"【バーゲン本】わくわく！おうたえほんー音のでるえほん","author":"ｂｂｃ　編","artistName":"","publisherName":"三興出版","label":"","isbn":"4528189314009","jan":"","hardware":"","os":"","itemCaption":"","salesDate":"","itemPrice":945,"listPrice":0,"discountRate":0,"discountPrice":0,"itemUrl":"http://books.rakuten.co.jp/rb/12332525/","affiliateUrl":"","smallImageUrl":"http://thumbnail.image.rakuten.co.jp/@0_mall/book/cabinet/4009/4528189314009.jpg?_ex=64x64","mediumImageUrl":"http://thumbnail.image.rakuten.co.jp/@0_mall/book/cabinet/4009/4528189314009.jpg?_ex=120x120","largeImageUrl":"http://thumbnail.image.rakuten.co.jp/@0_mall/book/cabinet/4009/4528189314009.jpg?_ex=200x200","chirayomiUrl":"","availability":"1","postageFlag":0,"limitedFlag":0,"reviewCount":29,"reviewAverage":"4.59","booksGenreId":"001003003001"}},{"Item":{"title":"【バーゲン本】手のひら湯たんぽで温め健康美人になる本","author":"山本　綾乃","artistName":"","publisherName":"（株）主婦の友社","label":"","isbn":"4528189301542","jan":"","hardware":"","os":"","itemCaption":"","salesDate":"","itemPrice":550,"listPrice":0,"discountRate":0,"discountPrice":0,"itemUrl":"http://books.rakuten.co.jp/rb/12218013/","affiliateUrl":"","smallImageUrl":"http://thumbnail.image.rakuten.co.jp/@0_mall/book/cabinet/1542/4528189301542.jpg?_ex=64x64","mediumImageUrl":"http://thumbnail.image.rakuten.co.jp/@0_mall/book/cabinet/1542/4528189301542.jpg?_ex=120x120","largeImageUrl":"http://thumbnail.image.rakuten.co.jp/@0_mall/book/cabinet/1542/4528189301542.jpg?_ex=200x200","chirayomiUrl":"","availability":"1","postageFlag":0,"limitedFlag":0,"reviewCount":38,"reviewAverage":"4.34","booksGenreId":"001010010001/001010010002/001012009002/001012009006"}},{"Item":{"title":"【バーゲン本】あ・い・うのえほん どうぶつ","author":"風讃社　編","artistName":"","publisherName":"三興出版","label":"","isbn":"4528189225527","jan":"","hardware":"","os":"","itemCaption":"","salesDate":"","itemPrice":424,"listPrice":0,"discountRate":0,"discountPrice":0,"itemUrl":"http://books.rakuten.co.jp/rb/11367298/","affiliateUrl":"","smallImageUrl":"http://thumbnail.image.rakuten.co.jp/@0_mall/book/cabinet/5527/4528189225527.jpg?_ex=64x64","mediumImageUrl":"http://thumbnail.image.rakuten.co.jp/@0_mall/book/cabinet/5527/4528189225527.jpg?_ex=120x120","largeImageUrl":"http://thumbnail.image.rakuten.co.jp/@0_mall/book/cabinet/5527/4528189225527.jpg?_ex=200x200","chirayomiUrl":"","availability":"1","postageFlag":0,"limitedFlag":0,"reviewCount":154,"reviewAverage":"4.28","booksGenreId":"001003003001/001010002001"}},{"Item":{"title":"SUUMO (スーモ) リフォーム実例 & 会社が見つかる本 首都圏版 2013年 12月号 [雑誌]","author":"","artistName":"","publisherName":"リクルート","label":"","isbn":"","jan":"4910193011232","hardware":"","os":"","itemCaption":"⇒ SUUMOリフォームをまとめ買いしてポイント獲得！  SUUMOリフォーム 実例＆会社が見つかる本 首都圏版ポイント10倍キャンペーン ■キャンペーン期間 2013年10月30日（水）10:00　から　2013年12月28日（土）9:59　 まで  ■キャンペーン対象 ー楽天ブックス(PC・ケータイ)で「対象商品」をご購入(ご注文完了) 　※「対象商品」は以下に記載。  ※こちらのキャンペーンはエントリーが不要となります  ■キャンペーン対象サービス ー楽天ブックス（PC） ーケータイ版楽天ブックス（ケータイ・スマートフォン） ーiPhoneアプリ版楽天ブックス  ※電子書籍（楽天kobo)はキャンペーンの対象外となります。  ■対象商品 （1点） SUUMOリフォーム　実例＆会社が見つかる本　首都圏版  ■プレゼント内容 プレゼント対象の方につきましては、「対象注文」における「対象商品」ご購入で獲得する楽天スーパーポイントが、通常の10倍となります。 　※「通常ポイント」の付与時期　　　　：ご注文日から20日後　→　10倍分 　※Racoupon(ラ・クーポン）利用の場合、通常ポイントは値引き後の金額を元に付与されますが、プレゼントポイントは値引き前の金額が適用されます。  ■その他ご連絡 ーお客様都合によるキャンセルの場合は「キャンペーン対象外」 ーご注文後、「対象商品」が欠品や発売延期・中止などで発送できない場合は「キャンペーン対象外」 ー獲得した楽天スーパーポイントは、楽天PointClub ポイント獲得・履歴画面でご確認いただけます。 ーメンテナンスなどでご注文いただけない場合がございますが、キャンペーン期間を延長することはございません。何とぞご了承ください。 ー当キャンペーンを予告なく中止させていただく場合がございます。  いくらかかった？住み心地は？ お金＆プラン　クチコミ100連発  【実例】人が集まるキッチン、こもれる趣味部屋… 「こだわり空間」アイデア12  会社の実例からしたいリフォームを探せる！ 実例レポート24邸  特徴・得意テーマから会社を探せる！ 会社レポート40邸  リフォームのダンドリ6つのステップ  進め方・お金・プランのポイントがわかる 基礎から学ぶリフォーム講座 ＜付録＞ デジカメもスマートフォンも入る！ クッションポーチ  SUUMOリフォーム　実例＆会社が見つかる本　首都圏版 送料無料1冊価格：300円（別ページに移動します) ※価格は変更される場合がございます。”東京・神奈川・埼玉・千葉のリフォーム実例&会社情報満載!  はじめてリフォームする人、リフォームで自分らしい住まいを手に入れたいと思っている人に まずは読んでもらいたい本です。  ■はじめてリフォームする予定だけれど、どのくらいの費用をかければ、どういったリフォームができるのかわからない。 ■新築を買うか、中古物件を買ってリノベーションするか、迷ってる。どんなことができるか知りたい。 ■実際にリフォームした家の写真をたくさん見たい。 ■リフォームするとき、どの会社に頼めばいいかよく分からない。 ■何から始めればいいんだろう?  など、リフォームをしたいと思った時に欲しい情報や、疑問を解消してくれる内容が満載です。  気になる会社の情報は、本についているまとめて資料請求ハガキ・FAX、またはインターネットで 無料で取り寄せられるので、とっても便利。  おトクにリフォームをするために必要な、税金や補助金についての最新情報が詰まった別冊付録付き!   ＝＝＝CONTENTS＝＝＝＝＝＝＝＝＝＝＝＝＝＝＝＝＝＝＝＝＝＝＝＝＝＝＝＝＝＝＝＝＝＝＝＝＝＝＝＝＝＝＝＝＝＝＝＝＝＝＝＝＝＝＝＝＝＝  ■東京・神奈川・埼玉・千葉のリフォーム実例&会社情報満載!   ＜付録＞ ■クッションポーチ  ＜リフォーム知識&ノウハウがわかる＞ ■「お金」&「プラン」クチコミ100連発 ■実例で見る「こだわり空間」アイデア12 ■リフォームの段取り6つのステップ ■経験者に聞いた会社選びのポイント ■依頼先を決める成功プロセス  ■「リフォームでできること・できないこと」や「リフォームの進め方」がわかる 基礎から学ぶリフォーム講座  ●リフォーム実例レポート ●リフォーム会社レポート ●エリアで探す リフォーム会社INDEX ”","salesDate":"2013年10月30日","itemPrice":300,"listPrice":0,"discountRate":0,"discountPrice":0,"itemUrl":"http://books.rakuten.co.jp/rb/12488195/","affiliateUrl":"","smallImageUrl":"http://thumbnail.image.rakuten.co.jp/@0_mall/book/cabinet/1232/4910193011232.jpg?_ex=64x64","mediumImageUrl":"http://thumbnail.image.rakuten.co.jp/@0_mall/book/cabinet/1232/4910193011232.jpg?_ex=120x120","largeImageUrl":"http://thumbnail.image.rakuten.co.jp/@0_mall/book/cabinet/1232/4910193011232.jpg?_ex=200x200","chirayomiUrl":"","availability":"1","postageFlag":0,"limitedFlag":0,"reviewCount":1,"reviewAverage":"1.0","booksGenreId":"007608004/007626004"}},{"Item":{"title":"神さまがやどるお掃除の本","author":"きさいち登志子","artistName":"","publisherName":"永岡書店","label":"","isbn":"9784522431757","jan":"","hardware":"","os":"","itemCaption":"汚れはけがれ、悪臭はよどみ、ホコリは病原、カビはバイ菌、湿気は腐敗ーリセット掃除で５大不浄を清める。","salesDate":"2013年03月","itemPrice":1050,"listPrice":0,"discountRate":0,"discountPrice":0,"itemUrl":"http://books.rakuten.co.jp/rb/12213912/","affiliateUrl":"","smallImageUrl":"http://thumbnail.image.rakuten.co.jp/@0_mall/book/cabinet/1757/9784522431757.jpg?_ex=64x64","mediumImageUrl":"http://thumbnail.image.rakuten.co.jp/@0_mall/book/cabinet/1757/9784522431757.jpg?_ex=120x120","largeImageUrl":"http://thumbnail.image.rakuten.co.jp/@0_mall/book/cabinet/1757/9784522431757.jpg?_ex=200x200","chirayomiUrl":"","availability":"1","postageFlag":0,"limitedFlag":0,"reviewCount":59,"reviewAverage":"4.41","booksGenreId":"001010004001/001010006005/001010013003"}},{"Item":{"title":"【バーゲン本】サイレンカー　たのしい！しゃしんえほん","author":"ｂｂｃ　編","artistName":"","publisherName":"三興出版","label":"","isbn":"4528189276451","jan":"","hardware":"","os":"","itemCaption":"","salesDate":"","itemPrice":394,"listPrice":0,"discountRate":0,"discountPrice":0,"itemUrl":"http://books.rakuten.co.jp/rb/11916923/","affiliateUrl":"","smallImageUrl":"http://thumbnail.image.rakuten.co.jp/@0_mall/book/cabinet/6451/4528189276451.jpg?_ex=64x64","mediumImageUrl":"http://thumbnail.image.rakuten.co.jp/@0_mall/book/cabinet/6451/4528189276451.jpg?_ex=120x120","largeImageUrl":"http://thumbnail.image.rakuten.co.jp/@0_mall/book/cabinet/6451/4528189276451.jpg?_ex=200x200","chirayomiUrl":"","availability":"1","postageFlag":0,"limitedFlag":0,"reviewCount":36,"reviewAverage":"4.64","booksGenreId":"001003007"}},{"Item":{"title":"【バーゲン本】 はじめて以前の簡単おかず","author":"主婦の友ＬＯＮＧＳＥＬＬＥＲＢＯＯＫＳ","artistName":"","publisherName":"（株）主婦の友社","label":"","isbn":"4528189181458","jan":"","hardware":"","os":"","itemCaption":"","salesDate":"","itemPrice":683,"listPrice":0,"discountRate":0,"discountPrice":0,"itemUrl":"http://books.rakuten.co.jp/rb/6970518/","affiliateUrl":"","smallImageUrl":"http://thumbnail.image.rakuten.co.jp/@0_mall/book/cabinet/1458/4528189181458.jpg?_ex=64x64","mediumImageUrl":"http://thumbnail.image.rakuten.co.jp/@0_mall/book/cabinet/1458/4528189181458.jpg?_ex=120x120","largeImageUrl":"http://thumbnail.image.rakuten.co.jp/@0_mall/book/cabinet/1458/4528189181458.jpg?_ex=200x200","chirayomiUrl":"","availability":"1","postageFlag":0,"limitedFlag":0,"reviewCount":36,"reviewAverage":"4.5","booksGenreId":"001010011001"}},{"Item":{"title":"【バーゲン本】おりがみでクリスマス","author":"日本折紙協会","artistName":"","publisherName":"（株）日本折紙協会","label":"","isbn":"4528189281240","jan":"","hardware":"","os":"","itemCaption":"","salesDate":"","itemPrice":945,"listPrice":0,"discountRate":0,"discountPrice":0,"itemUrl":"http://books.rakuten.co.jp/rb/12077806/","affiliateUrl":"","smallImageUrl":"http://thumbnail.image.rakuten.co.jp/@0_mall/book/cabinet/1240/4528189281240.jpg?_ex=64x64","mediumImageUrl":"http://thumbnail.image.rakuten.co.jp/@0_mall/book/cabinet/1240/4528189281240.jpg?_ex=120x120","largeImageUrl":"http://thumbnail.image.rakuten.co.jp/@0_mall/book/cabinet/1240/4528189281240.jpg?_ex=200x200","chirayomiUrl":"","availability":"3","postageFlag":0,"limitedFlag":0,"reviewCount":3,"reviewAverage":"4.67","booksGenreId":"001015/001023"}},{"Item":{"title":"【バーゲン本】フランスで覚えたお菓子","author":"ｐａｎｉｐｏｐｏ","artistName":"","publisherName":"グラフグループパブリッシング","label":"","isbn":"4528189272712","jan":"","hardware":"","os":"","itemCaption":"","salesDate":"","itemPrice":500,"listPrice":0,"discountRate":0,"discountPrice":0,"itemUrl":"http://books.rakuten.co.jp/rb/11932381/","affiliateUrl":"","smallImageUrl":"http://thumbnail.image.rakuten.co.jp/@0_mall/book/cabinet/2712/4528189272712.jpg?_ex=64x64","mediumImageUrl":"http://thumbnail.image.rakuten.co.jp/@0_mall/book/cabinet/2712/4528189272712.jpg?_ex=120x120","largeImageUrl":"http://thumbnail.image.rakuten.co.jp/@0_mall/book/cabinet/2712/4528189272712.jpg?_ex=200x200","chirayomiUrl":"","availability":"1","postageFlag":0,"limitedFlag":0,"reviewCount":14,"reviewAverage":"4.29","booksGenreId":"001010011002"}},{"Item":{"title":"【バーゲン本】音波式携帯電動歯ブラシシュシュピカ使いこなしBook","author":"主婦の友社　編","artistName":"","publisherName":"（株）主婦の友社","label":"","isbn":"4528189269637","jan":"","hardware":"","os":"","itemCaption":"","salesDate":"","itemPrice":599,"listPrice":0,"discountRate":0,"discountPrice":0,"itemUrl":"http://books.rakuten.co.jp/rb/11769450/","affiliateUrl":"","smallImageUrl":"http://thumbnail.image.rakuten.co.jp/@0_mall/book/cabinet/9637/4528189269637.jpg?_ex=64x64","mediumImageUrl":"http://thumbnail.image.rakuten.co.jp/@0_mall/book/cabinet/9637/4528189269637.jpg?_ex=120x120","largeImageUrl":"http://thumbnail.image.rakuten.co.jp/@0_mall/book/cabinet/9637/4528189269637.jpg?_ex=200x200","chirayomiUrl":"","availability":"1","postageFlag":0,"limitedFlag":0,"reviewCount":396,"reviewAverage":"4.05","booksGenreId":"001010014001/001012009005"}},{"Item":{"title":"【バーゲン本】毎日のおかずレシピ 3冊組","author":"","artistName":"","publisherName":"主婦の友社","label":"","isbn":"4528189235250","jan":"","hardware":"","os":"","itemCaption":"","salesDate":"","itemPrice":735,"listPrice":0,"discountRate":0,"discountPrice":0,"itemUrl":"http://books.rakuten.co.jp/rb/11720123/","affiliateUrl":"","smallImageUrl":"http://thumbnail.image.rakuten.co.jp/@0_mall/book/cabinet/5250/4528189235250.jpg?_ex=64x64","mediumImageUrl":"http://thumbnail.image.rakuten.co.jp/@0_mall/book/cabinet/5250/4528189235250.jpg?_ex=120x120","largeImageUrl":"http://thumbnail.image.rakuten.co.jp/@0_mall/book/cabinet/5250/4528189235250.jpg?_ex=200x200","chirayomiUrl":"","availability":"1","postageFlag":0,"limitedFlag":0,"reviewCount":28,"reviewAverage":"4.36","booksGenreId":"001010011001"}},{"Item":{"title":"【バーゲン本】食べて元気！ 身につく“栄養知識”と“実践レシピ”（デアゴスティーニコレクション）","author":"服部幸応","artistName":"","publisherName":"デアゴスティーニ・ジャパン","label":"","isbn":"2100010179005","jan":"","hardware":"","os":"","itemCaption":"","salesDate":"2012年09月","itemPrice":900,"listPrice":0,"discountRate":0,"discountPrice":0,"itemUrl":"http://books.rakuten.co.jp/rb/12497442/","affiliateUrl":"","smallImageUrl":"http://thumbnail.image.rakuten.co.jp/@0_mall/book/cabinet/9005/2100010179005.jpg?_ex=64x64","mediumImageUrl":"http://thumbnail.image.rakuten.co.jp/@0_mall/book/cabinet/9005/2100010179005.jpg?_ex=120x120","largeImageUrl":"http://thumbnail.image.rakuten.co.jp/@0_mall/book/cabinet/9005/2100010179005.jpg?_ex=200x200","chirayomiUrl":"http://books.rakuten.co.jp/chirayomi/index.phtml?id=7g5j5m0b7w&path=8w/I5W0R7i&iid=2100010179005","availability":"1","postageFlag":0,"limitedFlag":0,"reviewCount":2,"reviewAverage":"5.0","booksGenreId":"001010011001"}},{"Item":{"title":"【バーゲン本】ふってまわしてモデル脚になる1週間エクササイズ","author":"斉藤　美恵子","artistName":"","publisherName":"（株）メディアファクトリー","label":"","isbn":"4528189303942","jan":"","hardware":"","os":"","itemCaption":"","salesDate":"","itemPrice":630,"listPrice":0,"discountRate":0,"discountPrice":0,"itemUrl":"http://books.rakuten.co.jp/rb/12283254/","affiliateUrl":"","smallImageUrl":"http://thumbnail.image.rakuten.co.jp/@0_mall/book/cabinet/3942/4528189303942.jpg?_ex=64x64","mediumImageUrl":"http://thumbnail.image.rakuten.co.jp/@0_mall/book/cabinet/3942/4528189303942.jpg?_ex=120x120","largeImageUrl":"http://thumbnail.image.rakuten.co.jp/@0_mall/book/cabinet/3942/4528189303942.jpg?_ex=200x200","chirayomiUrl":"","availability":"1","postageFlag":0,"limitedFlag":0,"reviewCount":9,"reviewAverage":"3.33","booksGenreId":"001010014007"}},{"Item":{"title":"【バーゲン本】 最強の秋冬おかず300","author":"ムック版","artistName":"","publisherName":"グラフグループパブリッシング","label":"","isbn":"4528189196377","jan":"","hardware":"","os":"","itemCaption":"","salesDate":"","itemPrice":700,"listPrice":0,"discountRate":0,"discountPrice":0,"itemUrl":"http://books.rakuten.co.jp/rb/11139071/","affiliateUrl":"","smallImageUrl":"http://thumbnail.image.rakuten.co.jp/@0_mall/book/cabinet/6377/4528189196377.jpg?_ex=64x64","mediumImageUrl":"http://thumbnail.image.rakuten.co.jp/@0_mall/book/cabinet/6377/4528189196377.jpg?_ex=120x120","largeImageUrl":"http://thumbnail.image.rakuten.co.jp/@0_mall/book/cabinet/6377/4528189196377.jpg?_ex=200x200","chirayomiUrl":"","availability":"1","postageFlag":0,"limitedFlag":0,"reviewCount":52,"reviewAverage":"4.37","booksGenreId":"001010011001"}},{"Item":{"title":"【バーゲン本】スポンジケーキBOOK","author":"福田　淳子","artistName":"","publisherName":"グラフグループパブリッシング","label":"","isbn":"4528189272682","jan":"","hardware":"","os":"","itemCaption":"","salesDate":"","itemPrice":500,"listPrice":0,"discountRate":0,"discountPrice":0,"itemUrl":"http://books.rakuten.co.jp/rb/11932378/","affiliateUrl":"","smallImageUrl":"http://thumbnail.image.rakuten.co.jp/@0_mall/book/cabinet/2682/4528189272682.jpg?_ex=64x64","mediumImageUrl":"http://thumbnail.image.rakuten.co.jp/@0_mall/book/cabinet/2682/4528189272682.jpg?_ex=120x120","largeImageUrl":"http://thumbnail.image.rakuten.co.jp/@0_mall/book/cabinet/2682/4528189272682.jpg?_ex=200x200","chirayomiUrl":"","availability":"1","postageFlag":0,"limitedFlag":0,"reviewCount":90,"reviewAverage":"4.49","booksGenreId":"001010011002"}},{"Item":{"title":"まいにち食べたい“ごはんのような”クッキーとビスケットの本","author":"なかしましほ","artistName":"","publisherName":"主婦と生活社","label":"","isbn":"9784391628173","jan":"","hardware":"","os":"","itemCaption":"","salesDate":"2009年10月","itemPrice":1260,"listPrice":0,"discountRate":0,"discountPrice":0,"itemUrl":"http://books.rakuten.co.jp/rb/6181627/","affiliateUrl":"","smallImageUrl":"http://thumbnail.image.rakuten.co.jp/@0_mall/book/cabinet/8173/9784391628173.jpg?_ex=64x64","mediumImageUrl":"http://thumbnail.image.rakuten.co.jp/@0_mall/book/cabinet/8173/9784391628173.jpg?_ex=120x120","largeImageUrl":"http://thumbnail.image.rakuten.co.jp/@0_mall/book/cabinet/8173/9784391628173.jpg?_ex=200x200","chirayomiUrl":"","availability":"1","postageFlag":0,"limitedFlag":0,"reviewCount":324,"reviewAverage":"4.56","booksGenreId":"001010011002"}},{"Item":{"title":"パチンコ必勝本CLIMAX (クライマックス) 2014年 01月号 [雑誌]","author":"","artistName":"","publisherName":"綜合図書","label":"","isbn":"","jan":"4910174850140","hardware":"","os":"","itemCaption":"パチプロの技を伝授、本物の攻略誌","salesDate":"2013年11月30日","itemPrice":620,"listPrice":0,"discountRate":0,"discountPrice":0,"itemUrl":"http://books.rakuten.co.jp/rb/12561064/","affiliateUrl":"","smallImageUrl":"http://thumbnail.image.rakuten.co.jp/@0_mall/book/cabinet/0140/4910174850140.jpg?_ex=64x64","mediumImageUrl":"http://thumbnail.image.rakuten.co.jp/@0_mall/book/cabinet/0140/4910174850140.jpg?_ex=120x120","largeImageUrl":"http://thumbnail.image.rakuten.co.jp/@0_mall/book/cabinet/0140/4910174850140.jpg?_ex=200x200","chirayomiUrl":"","availability":"1","postageFlag":0,"limitedFlag":0,"reviewCount":0,"reviewAverage":"0.0","booksGenreId":"007621007/007626004"}},{"Item":{"title":"【バーゲン本】いろいろないろのえほん","author":"風讃社　編","artistName":"","publisherName":"三興出版","label":"","isbn":"4528189276512","jan":"","hardware":"","os":"","itemCaption":"","salesDate":"","itemPrice":424,"listPrice":0,"discountRate":0,"discountPrice":0,"itemUrl":"http://books.rakuten.co.jp/rb/11916919/","affiliateUrl":"","smallImageUrl":"http://thumbnail.image.rakuten.co.jp/@0_mall/book/cabinet/6512/4528189276512.jpg?_ex=64x64","mediumImageUrl":"http://thumbnail.image.rakuten.co.jp/@0_mall/book/cabinet/6512/4528189276512.jpg?_ex=120x120","largeImageUrl":"http://thumbnail.image.rakuten.co.jp/@0_mall/book/cabinet/6512/4528189276512.jpg?_ex=200x200","chirayomiUrl":"","availability":"1","postageFlag":0,"limitedFlag":0,"reviewCount":18,"reviewAverage":"4.28","booksGenreId":"001003003001"}},{"Item":{"title":"【バーゲン本】骨盤のゆがみを正す簡単エクササイズ","author":"入江　義仁","artistName":"","publisherName":"（株）パッチワーク通信社","label":"","isbn":"4528189289017","jan":"","hardware":"","os":"","itemCaption":"","salesDate":"","itemPrice":420,"listPrice":0,"discountRate":0,"discountPrice":0,"itemUrl":"http://books.rakuten.co.jp/rb/12178831/","affiliateUrl":"","smallImageUrl":"http://thumbnail.image.rakuten.co.jp/@0_mall/book/cabinet/9017/4528189289017.jpg?_ex=64x64","mediumImageUrl":"http://thumbnail.image.rakuten.co.jp/@0_mall/book/cabinet/9017/4528189289017.jpg?_ex=120x120","largeImageUrl":"http://thumbnail.image.rakuten.co.jp/@0_mall/book/cabinet/9017/4528189289017.jpg?_ex=200x200","chirayomiUrl":"","availability":"1","postageFlag":0,"limitedFlag":0,"reviewCount":64,"reviewAverage":"4.13","booksGenreId":"001010010001/001012009002"}},{"Item":{"title":"【バーゲン本】小学1年全科まとめて　国語・算数・生活ーきりとるドリル","author":"新学習指導要領対応","artistName":"","publisherName":"教学研究社","label":"","isbn":"4528189288119","jan":"","hardware":"","os":"","itemCaption":"","salesDate":"","itemPrice":840,"listPrice":0,"discountRate":0,"discountPrice":0,"itemUrl":"http://books.rakuten.co.jp/rb/12297751/","affiliateUrl":"","smallImageUrl":"http://thumbnail.image.rakuten.co.jp/@0_mall/book/cabinet/8119/4528189288119.jpg?_ex=64x64","mediumImageUrl":"http://thumbnail.image.rakuten.co.jp/@0_mall/book/cabinet/8119/4528189288119.jpg?_ex=120x120","largeImageUrl":"http://thumbnail.image.rakuten.co.jp/@0_mall/book/cabinet/8119/4528189288119.jpg?_ex=200x200","chirayomiUrl":"","availability":"1","postageFlag":0,"limitedFlag":0,"reviewCount":1,"reviewAverage":"4.0","booksGenreId":"001002006001"}},{"Item":{"title":"うぐいす姉妹　ゆるゆる旅行本","author":"ＴＯＮＯ","artistName":"","publisherName":"フロンティアワークス","label":"","isbn":"9784861346729","jan":"","hardware":"","os":"","itemCaption":"","salesDate":"2013年11月下旬","itemPrice":950,"listPrice":0,"discountRate":0,"discountPrice":0,"itemUrl":"http://books.rakuten.co.jp/rb/12481593/","affiliateUrl":"","smallImageUrl":"http://thumbnail.image.rakuten.co.jp/@0_mall/book/cabinet/6729/9784861346729.jpg?_ex=64x64","mediumImageUrl":"http://thumbnail.image.rakuten.co.jp/@0_mall/book/cabinet/6729/9784861346729.jpg?_ex=120x120","largeImageUrl":"http://thumbnail.image.rakuten.co.jp/@0_mall/book/cabinet/6729/9784861346729.jpg?_ex=200x200","chirayomiUrl":"","availability":"1","postageFlag":0,"limitedFlag":0,"reviewCount":0,"reviewAverage":"0.0","booksGenreId":"001015"}},{"Item":{"title":"【バーゲン本】母と子のあやとりの本","author":"あやとりの和　編","artistName":"","publisherName":"三興出版","label":"","isbn":"4528189088962","jan":"","hardware":"","os":"","itemCaption":"","salesDate":"","itemPrice":515,"listPrice":0,"discountRate":0,"discountPrice":0,"itemUrl":"http://books.rakuten.co.jp/rb/6912657/","affiliateUrl":"","smallImageUrl":"http://thumbnail.image.rakuten.co.jp/@0_mall/book/cabinet/8962/4528189088962.jpg?_ex=64x64","mediumImageUrl":"http://thumbnail.image.rakuten.co.jp/@0_mall/book/cabinet/8962/4528189088962.jpg?_ex=120x120","largeImageUrl":"http://thumbnail.image.rakuten.co.jp/@0_mall/book/cabinet/8962/4528189088962.jpg?_ex=200x200","chirayomiUrl":"","availability":"1","postageFlag":0,"limitedFlag":0,"reviewCount":21,"reviewAverage":"3.71","booksGenreId":"001010002001"}},{"Item":{"title":"【バーゲン本】おしり押すだけ！で腰痛退治","author":"井上　栄二","artistName":"","publisherName":"（株）メディアファクトリー","label":"","isbn":"4528189303928","jan":"","hardware":"","os":"","itemCaption":"","salesDate":"","itemPrice":630,"listPrice":0,"discountRate":0,"discountPrice":0,"itemUrl":"http://books.rakuten.co.jp/rb/12283261/","affiliateUrl":"","smallImageUrl":"http://thumbnail.image.rakuten.co.jp/@0_mall/book/cabinet/3928/4528189303928.jpg?_ex=64x64","mediumImageUrl":"http://thumbnail.image.rakuten.co.jp/@0_mall/book/cabinet/3928/4528189303928.jpg?_ex=120x120","largeImageUrl":"http://thumbnail.image.rakuten.co.jp/@0_mall/book/cabinet/3928/4528189303928.jpg?_ex=200x200","chirayomiUrl":"","availability":"1","postageFlag":0,"limitedFlag":0,"reviewCount":6,"reviewAverage":"4.5","booksGenreId":"001010010001/001012009002"}},{"Item":{"title":"【バーゲン本】鶏肉レシピ","author":"検見崎　聡美","artistName":"","publisherName":"グラフグループパブリッシング","label":"","isbn":"4528189272699","jan":"","hardware":"","os":"","itemCaption":"","salesDate":"","itemPrice":500,"listPrice":0,"discountRate":0,"discountPrice":0,"itemUrl":"http://books.rakuten.co.jp/rb/11932379/","affiliateUrl":"","smallImageUrl":"http://thumbnail.image.rakuten.co.jp/@0_mall/book/cabinet/2699/4528189272699.jpg?_ex=64x64","mediumImageUrl":"http://thumbnail.image.rakuten.co.jp/@0_mall/book/cabinet/2699/4528189272699.jpg?_ex=120x120","largeImageUrl":"http://thumbnail.image.rakuten.co.jp/@0_mall/book/cabinet/2699/4528189272699.jpg?_ex=200x200","chirayomiUrl":"","availability":"1","postageFlag":0,"limitedFlag":0,"reviewCount":29,"reviewAverage":"3.9","booksGenreId":"001010011001"}},{"Item":{"title":"【バーゲン本】こっきんメイク","author":"横山　恵子","artistName":"","publisherName":"（株）メディアファクトリー","label":"","isbn":"4528189304024","jan":"","hardware":"","os":"","itemCaption":"","salesDate":"","itemPrice":683,"listPrice":0,"discountRate":0,"discountPrice":0,"itemUrl":"http://books.rakuten.co.jp/rb/12283246/","affiliateUrl":"","smallImageUrl":"http://thumbnail.image.rakuten.co.jp/@0_mall/book/cabinet/4024/4528189304024.jpg?_ex=64x64","mediumImageUrl":"http://thumbnail.image.rakuten.co.jp/@0_mall/book/cabinet/4024/4528189304024.jpg?_ex=120x120","largeImageUrl":"http://thumbnail.image.rakuten.co.jp/@0_mall/book/cabinet/4024/4528189304024.jpg?_ex=200x200","chirayomiUrl":"","availability":"1","postageFlag":0,"limitedFlag":0,"reviewCount":8,"reviewAverage":"4.0","booksGenreId":"001010014007"}},{"Item":{"title":"【バーゲン本】おやこでいっしょにこちょこちょごろごろーことばあそびえほん","author":"風讃社　編","artistName":"","publisherName":"三興出版","label":"","isbn":"4528189276536","jan":"","hardware":"","os":"","itemCaption":"","salesDate":"","itemPrice":424,"listPrice":0,"discountRate":0,"discountPrice":0,"itemUrl":"http://books.rakuten.co.jp/rb/11916917/","affiliateUrl":"","smallImageUrl":"http://thumbnail.image.rakuten.co.jp/@0_mall/book/cabinet/6536/4528189276536.jpg?_ex=64x64","mediumImageUrl":"http://thumbnail.image.rakuten.co.jp/@0_mall/book/cabinet/6536/4528189276536.jpg?_ex=120x120","largeImageUrl":"http://thumbnail.image.rakuten.co.jp/@0_mall/book/cabinet/6536/4528189276536.jpg?_ex=200x200","chirayomiUrl":"","availability":"1","postageFlag":0,"limitedFlag":0,"reviewCount":28,"reviewAverage":"4.54","booksGenreId":"001003007"}},{"Item":{"title":"【バーゲン本】ア・イ・ウのえほんーカタカナ編","author":"風讃社　編","artistName":"","publisherName":"三興出版","label":"","isbn":"4528189276499","jan":"","hardware":"","os":"","itemCaption":"","salesDate":"","itemPrice":424,"listPrice":0,"discountRate":0,"discountPrice":0,"itemUrl":"http://books.rakuten.co.jp/rb/11916916/","affiliateUrl":"","smallImageUrl":"http://thumbnail.image.rakuten.co.jp/@0_mall/book/cabinet/6499/4528189276499.jpg?_ex=64x64","mediumImageUrl":"http://thumbnail.image.rakuten.co.jp/@0_mall/book/cabinet/6499/4528189276499.jpg?_ex=120x120","largeImageUrl":"http://thumbnail.image.rakuten.co.jp/@0_mall/book/cabinet/6499/4528189276499.jpg?_ex=200x200","chirayomiUrl":"","availability":"1","postageFlag":0,"limitedFlag":0,"reviewCount":37,"reviewAverage":"4.27","booksGenreId":"001003003001"}},{"Item":{"title":"【バーゲン本】かわいいお菓子がいっぱい新装版","author":"まちやま　ちほ","artistName":"","publisherName":"（株）東京書店","label":"","isbn":"4528189297210","jan":"","hardware":"","os":"","itemCaption":"","salesDate":"","itemPrice":420,"listPrice":0,"discountRate":0,"discountPrice":0,"itemUrl":"http://books.rakuten.co.jp/rb/12203629/","affiliateUrl":"","smallImageUrl":"http://thumbnail.image.rakuten.co.jp/@0_mall/book/cabinet/7210/4528189297210.jpg?_ex=64x64","mediumImageUrl":"http://thumbnail.image.rakuten.co.jp/@0_mall/book/cabinet/7210/4528189297210.jpg?_ex=120x120","largeImageUrl":"http://thumbnail.image.rakuten.co.jp/@0_mall/book/cabinet/7210/4528189297210.jpg?_ex=200x200","chirayomiUrl":"","availability":"1","postageFlag":0,"limitedFlag":0,"reviewCount":17,"reviewAverage":"4.24","booksGenreId":"001015/001023"}},{"Item":{"title":"ふなっしーの本なっしー！！","author":"ふなっしー","artistName":"","publisherName":"富士見書房","label":"","isbn":"9784829177297","jan":"","hardware":"","os":"","itemCaption":"光る虚言！脅威の身体能力！！勝手に船橋市を護る梨の妖精・ふなっしーの本なっし〜船橋市のみんなと大ジャンプしたり遊んだ写真やふなっしーの新たな秘密、りれきしょ、などなど、ふなっしーてんこ盛り！","salesDate":"2013年09月","itemPrice":1050,"listPrice":0,"discountRate":0,"discountPrice":0,"itemUrl":"http://books.rakuten.co.jp/rb/12412896/","affiliateUrl":"","smallImageUrl":"http://thumbnail.image.rakuten.co.jp/@0_mall/book/cabinet/7297/9784829177297.jpg?_ex=64x64","mediumImageUrl":"http://thumbnail.image.rakuten.co.jp/@0_mall/book/cabinet/7297/9784829177297.jpg?_ex=120x120","largeImageUrl":"http://thumbnail.image.rakuten.co.jp/@0_mall/book/cabinet/7297/9784829177297.jpg?_ex=200x200","chirayomiUrl":"","availability":"1","postageFlag":0,"limitedFlag":0,"reviewCount":23,"reviewAverage":"4.52","booksGenreId":"001004015/001008010"}},{"Item":{"title":"【バーゲン本】バームクーヘンの本","author":"福田淳子","artistName":"","publisherName":"グラフグループパブリッシング","label":"","isbn":"4528189225824","jan":"","hardware":"","os":"","itemCaption":"","salesDate":"","itemPrice":500,"listPrice":0,"discountRate":0,"discountPrice":0,"itemUrl":"http://books.rakuten.co.jp/rb/11367292/","affiliateUrl":"","smallImageUrl":"http://thumbnail.image.rakuten.co.jp/@0_mall/book/cabinet/5824/4528189225824.jpg?_ex=64x64","mediumImageUrl":"http://thumbnail.image.rakuten.co.jp/@0_mall/book/cabinet/5824/4528189225824.jpg?_ex=120x120","largeImageUrl":"http://thumbnail.image.rakuten.co.jp/@0_mall/book/cabinet/5824/4528189225824.jpg?_ex=200x200","chirayomiUrl":"","availability":"1","postageFlag":0,"limitedFlag":0,"reviewCount":101,"reviewAverage":"4.23","booksGenreId":"001010011002"}}],"GenreInformation":[]}