{"count":50,"page":1,"first":1,"last":27,"hits":27,"carrier":0,"pageCount":2,"Items":[ {"Item":{"golfCourseId":100055,"golfCourseName":"熱海倶楽部　東軽井沢ゴルフコース（旧：松井田妙義ゴルフ倶楽部）","golfCourseAbbr":"熱海C東軽井沢GC","golfCourseNameKana":"あたみくらぶ　ひがしかるいざわごるふこーす","golfCourseCaption":"夏は涼しく爽やかに冬は妙義山に囲まれ温暖なゴルフコース。  四季を通じてオンシーズン。スムージングスルーという新しいコンセプトで設計されたクラブハウスは、車からカートへのキャディーバッグの移動と人の流れとの調和を根本から考えています。 ここにもアメリカンスタイルの何気ない気配りが生きているのです。 熱海倶楽部　東軽井沢ゴルフコース一押し！！名物ホールNo６(PAR5)皆様挑みに来て下さい！！","address":"群馬県安中市松井田町土塩2934","latitude":36.3427992,"longitude":138.7611911,"highway":"上信越自動車道松井田妙義","golfCourseDetailUrl":"http://booking.gora.golf.rakuten.co.jp/guide/disp/c_id/100055","reserveCalUrl":"http://search.gora.golf.rakuten.co.jp/cal/disp/c_id/100055","ratingUrl":"http://booking.gora.golf.rakuten.co.jp/voice/detail/c_id/100055","golfCourseImageUrl":"http://gora.golf.rakuten.co.jp/img/golf/100055/photo1.jpg","evaluation":3.8}},{"Item":{"golfCourseId":100027,"golfCourseName":"ヴィレッジ東軽井沢ゴルフクラブ（旧：サンランドゴルフクラブ東軽井沢コース）","golfCourseAbbr":"ヴィレッジ東軽井沢GC","golfCourseNameKana":"びれっじひがしかるいざわごるふくらぶ（さんらんどごるふくらぶひがしかるいざわこーす）","golfCourseCaption":"妙義山の懐に抱かれ、霧積川の流れに沿って展開する18ホール。見た目にはやさしく感じられるが、池やクリークが要所要所に配され難易度は高く挑戦意欲をそそられる。名物の霧積川越えの８番ショートホールは美しくプレッシャーのかかるホール。またコース内から湧き出す天然温泉（東軽井沢温泉）はプレーに疲れたゴルファーを楽しませてくれる。 ★★LINE@始めました！LINE公式アカウントより、ヴィレッジ東軽井沢ゴルフクラブを検索⇒友だち登録お願いします♪★★ ★1人予約のプラン始めました★下記、ページより最新のプランをご確認ください。http://search.gora.golf.rakuten.co.jp/?menu=srch_solo&act=disp&c_id=100027&order=play_day","address":"群馬県安中市松井田町坂本1417","latitude":36.3530342,"longitude":138.7233142,"highway":"上信越自動車道松井田妙義","golfCourseDetailUrl":"http://booking.gora.golf.rakuten.co.jp/guide/disp/c_id/100027","reserveCalUrl":"http://search.gora.golf.rakuten.co.jp/cal/disp/c_id/100027","ratingUrl":"http://booking.gora.golf.rakuten.co.jp/voice/detail/c_id/100027","golfCourseImageUrl":"http://gora.golf.rakuten.co.jp/img/golf/100027/photo1.jpg","evaluation":3.7}},{"Item":{"golfCourseId":280041,"golfCourseName":"関西軽井沢ゴルフ倶楽部","golfCourseAbbr":"関西軽井沢GC","golfCourseNameKana":"かんさいかるいざわごるふくらぶ","golfCourseCaption":"北摂に位置し、41年の伝統に支えられたコース。距離のある東コース、チャレンジャーに戦略を求める西コース、大野山を一望できるロケーションのいい南コース、フラットでトリッキーな北コース。雄大な自然を臨み様々な顔を持つ３６ホールが、プレーヤーの挑戦を待つ。★東・西・南・北コース全コース乗用カート※南コース　リニューアルオープン!!特別割引料金で皆様をお待ちいたします。","address":"兵庫県川辺郡猪名川町杉生１－１３","latitude":34.9970956,"longitude":135.3436636,"highway":"阪神高速道路池田木部","golfCourseDetailUrl":"http://booking.gora.golf.rakuten.co.jp/guide/disp/c_id/280041","reserveCalUrl":"http://search.gora.golf.rakuten.co.jp/cal/disp/c_id/280041","ratingUrl":"http://booking.gora.golf.rakuten.co.jp/voice/detail/c_id/280041","golfCourseImageUrl":"http://gora.golf.rakuten.co.jp/img/golf/280041/photo1.jpg","evaluation":3.2}},{"Item":{"golfCourseId":280115,"golfCourseName":"播磨自然高原船坂ゴルフ倶楽部","golfCourseAbbr":"播磨自然高原船坂GC","golfCourseNameKana":"はりましぜんこうげんふなさかごるふくらぶ","golfCourseCaption":"＊＊＊＊＊＊＊＊＊＊＊ようこそ！1200万平米のリゾート空間へ＊＊＊＊＊＊＊＊＊＊大自然の真っ只中　・・・　澄んだ空気　・・・　静寂の瞬間　・・・　豪華別荘が立ち並ぶコースレイアウト　・・・　気分はまさに軽井沢のリゾート　・・・　西の軽井沢と称される播磨高原に佇むｺﾞﾙﾌ場、夏は涼感の中爽快プレー・・冬は温暖な気候・・あなたにとって最高に有意義な一日を　・・・　電磁誘導式カートで楽々ゴルフプレー","address":"兵庫県赤穂郡上郡町高山1228","latitude":34.8409336,"longitude":134.28636,"highway":"山陽自動車道備前","golfCourseDetailUrl":"http://booking.gora.golf.rakuten.co.jp/guide/disp/c_id/280115","reserveCalUrl":"http://search.gora.golf.rakuten.co.jp/cal/disp/c_id/280115","ratingUrl":"http://booking.gora.golf.rakuten.co.jp/voice/detail/c_id/280115","golfCourseImageUrl":"http://gora.golf.rakuten.co.jp/img/golf/280115/photo1.jpg","evaluation":3.9}},{"Item":{"golfCourseId":200014,"golfCourseName":"軽井沢７２ゴルフ　西コース","golfCourseAbbr":"軽井沢７２G　西C","golfCourseNameKana":"かるいざわせぶんつーごるふ　にしこーす","golfCourseCaption":"ＧＰＳナビ付リモコン式４人乗りゴルフカーで、リーズナブルに楽しめるセルフスタイルのコースです。高原の自然な起伏に展開するゴールド、ブルーの２コースは、フェアウェーも広く開放的なプレーを満喫できます。また、夏期シーズンは早朝・午後からのハーフプレーもお楽しみいただけます。 ☆西コース情報☆ＧＰＳナビ付乗用カートを導入しております。スコア入力機能付ですのでコンペでの利用も対応できます。また、レストランにテラス席を設置しより一層リゾートゴルフを満喫できるようになりました。コース内標識等のデザインを向上し「わかりやすく」「プレーしやすい」環境を提供しております。","address":"長野県北佐久郡軽井沢町発地南軽井沢","latitude":36.309739,"longitude":138.632174,"highway":"上信越自動車道碓氷軽井沢","golfCourseDetailUrl":"http://booking.gora.golf.rakuten.co.jp/guide/disp/c_id/200014","reserveCalUrl":"http://search.gora.golf.rakuten.co.jp/cal/disp/c_id/200014","ratingUrl":"http://booking.gora.golf.rakuten.co.jp/voice/detail/c_id/200014","golfCourseImageUrl":"http://gora.golf.rakuten.co.jp/img/golf/200014/photo1.jpg","evaluation":4}},{"Item":{"golfCourseId":200017,"golfCourseName":"隨縁軽井沢ナインハンドレッド倶楽部","golfCourseAbbr":"隨縁軽井沢ナインハンドレッドC","golfCourseNameKana":"ずいえんかるいざわないんはんどれっどくらぶ","golfCourseCaption":"丘陵コース。山あいに位置するコースなので一見高低差があるように感じるが、各ホール雛壇状になっているのでフェアウェイにはほとんど高低差がなくまっすぐ伸びている。１８番ホールのロングはティグランドを高くして打ちおろしにしている上に、正面に浅間山、クラブハウスと池が一望できるので気持ちよく１打目を打つことができる。曲がらない人にはいいスコアが期待できる。 また、ファッションデザイン界の巨匠芦田淳先生がイメージの全てをコントロールしたハウスは、優雅なヨーロッパの山城のおもむき。威儀を正した正統派でありながら自由と寛ぎを感じられる雰囲気に人気があります。","address":"長野県北佐久郡軽井沢町茂沢1-201","latitude":36.2938083,"longitude":138.5874933,"highway":"上信越自動車道碓氷軽井沢","golfCourseDetailUrl":"http://booking.gora.golf.rakuten.co.jp/guide/disp/c_id/200017","reserveCalUrl":"http://search.gora.golf.rakuten.co.jp/cal/disp/c_id/200017","ratingUrl":"http://booking.gora.golf.rakuten.co.jp/voice/detail/c_id/200017","golfCourseImageUrl":"http://gora.golf.rakuten.co.jp/img/golf/200017/photo1.jpg","evaluation":4.2}},{"Item":{"golfCourseId":10091,"golfCourseName":"樽前カントリークラブ","golfCourseAbbr":"樽前CC","golfCourseNameKana":"たるまえかんとりーくらぶ","golfCourseCaption":"【アコーディアゴルフ運営】1963年開場　開場50周年をむかえた北海道苫小牧屈指の名コース。名匠 上田治設計、名峰 樽前山を望む27ホールの雄大でフラットなロケーションは、女性にもやさしいレイアウトとなっています。2007年日本女子オープン開催コース!!諸見里しのぶが6アンダーで初優勝。トーナメント開催は南⇒中コースとなります。もっとも北海道らしいコース。まさにロング＆ワイド。太平洋と樽前山、雄大な自然に豪快なショットを楽しめます。 北海道の軽井沢　苫小牧樽前カントリクラブのある苫小牧市は、北海道の軽井沢と言われる涼しい地域ですヨ。8月の日中の気温は25℃弱の日が多く、ゴルファーに嬉しいエリアです。どこ行くの？苫小牧でショ　　(○＾ω＾)_／【Hello!】","address":"北海道苫小牧市錦岡491","latitude":42.6235408,"longitude":141.4828078,"highway":"道央自動車道苫小牧西","golfCourseDetailUrl":"http://booking.gora.golf.rakuten.co.jp/guide/disp/c_id/10091","reserveCalUrl":"http://search.gora.golf.rakuten.co.jp/cal/disp/c_id/10091","ratingUrl":"http://booking.gora.golf.rakuten.co.jp/voice/detail/c_id/10091","golfCourseImageUrl":"http://gora.golf.rakuten.co.jp/img/golf/10091/photo1.jpg","evaluation":4.1}},{"Item":{"golfCourseId":200071,"golfCourseName":"三井の森軽井沢カントリー倶楽部","golfCourseAbbr":"三井の森軽井沢CC","golfCourseNameKana":"みついのもりかるいざわかんとりーくらぶ","golfCourseCaption":"三井の森軽井沢カントリー倶楽部は、浅間山を望む丘に広がる、軽井沢の大自然に囲まれたゴルフリゾートです。重厚感あふれるクラブハウスは、周囲の原生林とのコントラストが美しく、館内ではWi-Fiの利用も可能です。  敷地内のレストランには、モーニングやランチメニューに加え、料理長おすすめの逸品やパーティーメニューも充実しています。 三井の森軽井沢カントリー倶楽部には、戦略性に富むインとアウトの全18ホールが揃っています。キャップスロック(奇岩)と池を同時に臨むミドルホールの5番や、ティーグラウンドからグリーンまでの高低差が約56メートルの豪快な打ち下ろしが楽しめる15番など、軽井沢の風光明媚な景色を味わいながら、大胆かつ繊細なショットが必要とされるホールが目白押しです。サイドを緑豊かな森に包まれたドッグレッグや、地形の特徴を生かして複雑なアンジュレーションを取り入れたホール設計は、何度訪れてもプレーヤーを飽きさせない魅力があります。  GPSナビが搭載されたリモコン付きの電磁誘導カートを利用することで、初めてでも快適にプレーを満喫できます。コースに出る前の練習や、プレー後の調整のために利用できる練習場も完備しています。 東京方面からのアクセスは、長野新幹線が便利です。東京駅から軽井沢駅まで約1時間移動した後、軽井沢駅から車で約15分です。東京方面から車で向かう場合は、練馬ICから碓氷軽井沢ICを経由し、約1時間50分で到着できます。","address":"長野県北佐久郡軽井沢町発地941","latitude":36.3034092,"longitude":138.5915814,"highway":"上信越自動車道碓氷軽井沢","golfCourseDetailUrl":"http://booking.gora.golf.rakuten.co.jp/guide/disp/c_id/200071","reserveCalUrl":"http://search.gora.golf.rakuten.co.jp/cal/disp/c_id/200071","ratingUrl":"http://booking.gora.golf.rakuten.co.jp/voice/detail/c_id/200071","golfCourseImageUrl":"http://gora.golf.rakuten.co.jp/img/golf/200071/photo1.jpg","evaluation":3.9}},{"Item":{"golfCourseId":200016,"golfCourseName":"軽井沢７２ゴルフ　南コース","golfCourseAbbr":"軽井沢７２G　南C","golfCourseNameKana":"かるいざわせぶんつーごるふ　みなみこーす","golfCourseCaption":"軽井沢72ゴルフ 南コースは、全55コースを有するプリンスゴルフリゾートのゴルフ場の中の一つです。 周囲にある同系列のホテルに宿泊しながら連日プレーを楽しむことができるようになっています。電車利用の場合、東京駅からは約1時間で到着できるでしょう。また、軽井沢駅あるいは軽井沢プリンスホテルからプレーヤー専用の無料シャトルバスも利用できます。 南コースは南軽井沢にあり、車の場合は上信越自動車道、軽井沢ICからおよそ7分、長野新幹線軽井沢南口駅からタクシーで約8分ほどの距離です。 コースは18ホール、トータル距離7,067ヤードで、リゾート感を味わいながらスループレーで楽しめるコースです。全ホールを通して軽井沢の見晴らしの良い美しく雄大な景色に囲まれた丘陵コースです。18ホール中13ホールに池が配置されています。アウト2番、6番はコース右側に大きな池があり、右を狙いフェアウェイを目指すと良いでしょう。9番は左ドッグレッグでしかも手前側は左側に、グリーン近くへ行くと右側に池が広がっています。インコースに入り10番はホールそのものが池に囲まれたように設計されています。距離が104ヤードと短くバーディを狙いたい13番も池越えになっています。500ヤードを越えるホールはアウト4番だけなので、距離的には初心者や女性にも楽しみやすいコースでしょう。GPSナビ付き乗用ゴルフカーで乗り入れ可能なので、天候の影響も受けにくくスコアメイクに集中できます。スループレー専用のゴルフコースなのでレストランはなく、コース内を移動するビバレッジカートの軽食や飲み物を購入し途中で軽く昼食をとる形式です。 練習場は徒歩2分のところにある西クラブハウス練習場や、車で数分の所にある軽井沢練習場など、数カ所あります。","address":"長野県北佐久郡軽井沢町発地南軽井沢","latitude":36.3060486,"longitude":138.6337794,"highway":"上信越自動車道碓氷軽井沢","golfCourseDetailUrl":"http://booking.gora.golf.rakuten.co.jp/guide/disp/c_id/200016","reserveCalUrl":"http://search.gora.golf.rakuten.co.jp/cal/disp/c_id/200016","ratingUrl":"http://booking.gora.golf.rakuten.co.jp/voice/detail/c_id/200016","golfCourseImageUrl":"http://gora.golf.rakuten.co.jp/img/golf/200016/photo1.jpg","evaluation":4.2}},{"Item":{"golfCourseId":200015,"golfCourseName":"軽井沢７２ゴルフ　東コース","golfCourseAbbr":"軽井沢７２G　東C","golfCourseNameKana":"かるいざわせぶんつーごるふ　ひがしこーす","golfCourseCaption":"多彩なテクニックとアクティブなショットが要求される、難易度の高い入山コース。雄大で個性的なレイアウトが魅力の押立コース。入山コースはキャディー付で押立コースはセルフでのプレースタイルになります。気の合う仲間やファミリーで、爽快なＧＰＳナビ付乗用ゴルフカーでのプレーが楽しめます。また、フェアウェイ乗入れも可能（有料）になりより快適に戦略的にプレーをお楽しみいただけます。（乗入れは当日の天候、コース状況のよりお断りする場合がございます）コース内標識等のデザインを向上し「わかりやすく」「プレーしやすい」環境を提供しております。クラブハウスも新しくなり快適な空間を提供いたします。【２０１４年世界マチュアゴルフチーム選手権】東コースで開催！！★世界の舞台にチャレンジ★","address":"長野県北佐久郡軽井沢町発地南軽井沢","latitude":36.3085914,"longitude":138.6355111,"highway":"上信越自動車道碓氷軽井沢","golfCourseDetailUrl":"http://booking.gora.golf.rakuten.co.jp/guide/disp/c_id/200015","reserveCalUrl":"http://search.gora.golf.rakuten.co.jp/cal/disp/c_id/200015","ratingUrl":"http://booking.gora.golf.rakuten.co.jp/voice/detail/c_id/200015","golfCourseImageUrl":"http://gora.golf.rakuten.co.jp/img/golf/200015/photo1.jpg","evaluation":4.3}},{"Item":{"golfCourseId":340019,"golfCourseName":"チェリーゴルフクラブ吉和の森コース","golfCourseAbbr":"チェリーGC吉和の森C","golfCourseNameKana":"ちぇりーごるふくらぶよしわのもりこーす","golfCourseCaption":"『西の軽井沢』と呼ぶにふさわしい、恵まれた中国山脈の自然環境の中に、広大な敷地を生かし設計された全ホール高低差１０ｍ以内という、フラットで開放感溢れるコースです。四季を通じて緑の芝でプレーが楽しめる、「吉和の森コース」ならではの大きな魅力が人気です。広島市内からのアクセスも吉和インターから8キロと良好！格安プランでのご提供によりコストパフォーマンスには定評があります。","address":"広島県廿日市市吉和1587","latitude":34.4370125,"longitude":132.1041028,"highway":"中国自動車道吉和","golfCourseDetailUrl":"http://booking.gora.golf.rakuten.co.jp/guide/disp/c_id/340019","reserveCalUrl":"http://search.gora.golf.rakuten.co.jp/cal/disp/c_id/340019","ratingUrl":"http://booking.gora.golf.rakuten.co.jp/voice/detail/c_id/340019","golfCourseImageUrl":"http://gora.golf.rakuten.co.jp/img/golf/340019/photo1.jpg","evaluation":3.8}},{"Item":{"golfCourseId":240048,"golfCourseName":"ＣＯＣＯＰＡ ＲＥＳＯＲＴ ＣＬＵＢ 白山ヴィレッジゴルフコース","golfCourseAbbr":"COCOPA RESORT CLUB白山ヴィレッジGC","golfCourseNameKana":"ここぱりぞーとくらぶ　はくさんう゛ぃれっじごるふこーす","golfCourseCaption":"～　2015年　日本シニアオープン開催コース　～ ３６ホールとも、アベレージゴルファーには優しいがローハンディ者には結構厳しいコース戦略が必要。名物ホールはホテル越えのクイーン１８番ホール。滞在すれば夕食は5つのレストランと露天付き温泉大浴場も楽しめる。","address":"三重県津市白山町川口6262","latitude":34.6339361,"longitude":136.3696072,"highway":"伊勢自動車道伊勢関","golfCourseDetailUrl":"http://booking.gora.golf.rakuten.co.jp/guide/disp/c_id/240048","reserveCalUrl":"http://search.gora.golf.rakuten.co.jp/cal/disp/c_id/240048","ratingUrl":"http://booking.gora.golf.rakuten.co.jp/voice/detail/c_id/240048","golfCourseImageUrl":"http://gora.golf.rakuten.co.jp/img/golf/240048/photo1.jpg","evaluation":4.2}},{"Item":{"golfCourseId":200011,"golfCourseName":"軽井沢浅間ゴルフコース","golfCourseAbbr":"軽井沢浅間GC","golfCourseNameKana":"かるいざわあさまごるふこーす","golfCourseCaption":"雄大な浅間山を望むツーサム専用の18ホールスループレーコース。フェアウｴー内にカートの乗り入れ可（コース状況によります。）1ラウンド平均3時間30分と早く、プレー後の時間を有効に使えます。お食事は隣接の軽井沢浅間プリンスホテルのレストランでゆっくりランチ。  ★1人予約のプラン始めました★下記、ページより最新のプランをご確認ください。http://search.gora.golf.rakuten.co.jp/?menu=srch_solo&act=disp&c_id=200011&order=play_day  【ご注意事項】●当ゴルフ場の受付は、隣接する軽井沢浅間プリンスホテルのフロントで行っております。 ●当ゴルフ場には大浴場のご用意はございません。ホテル客室内の浴室（シャワー）をご利用していただいております。※予約・宿泊状況、団体貸切等により、変更になる場合がございます。","address":"長野県北佐久郡軽井沢町発地南軽井沢","latitude":36.29612,"longitude":138.6466336,"highway":"上信越自動車道碓氷軽井沢","golfCourseDetailUrl":"http://booking.gora.golf.rakuten.co.jp/guide/disp/c_id/200011","reserveCalUrl":"http://search.gora.golf.rakuten.co.jp/cal/disp/c_id/200011","ratingUrl":"http://booking.gora.golf.rakuten.co.jp/voice/detail/c_id/200011","golfCourseImageUrl":"http://gora.golf.rakuten.co.jp/img/golf/200011/photo1.jpg","evaluation":3.4}},{"Item":{"golfCourseId":200042,"golfCourseName":"晴山ゴルフ場","golfCourseAbbr":"晴山G場","golfCourseNameKana":"せいざんごるふじょう","golfCourseCaption":"軽井沢駅から最も近く、アウト・インともロングがひとつのパー７０。各ホールとも距離が短いため、アプローチとパットがスコアの決め手。当コースはバッグの積み下ろしから、プレー後のクラブ拭きまで全てプレーヤーのみなさまにお願いしております。 ★1人予約のプラン始めました★下記、ページより最新のプランをご確認ください。http://search.gora.golf.rakuten.co.jp/?menu=srch_solo&act=disp&c_id=200042&order=play_day","address":"長野県北佐久郡軽井沢町軽井沢","latitude":36.3338836,"longitude":138.6336908,"highway":"上信越自動車道碓氷軽井沢","golfCourseDetailUrl":"http://booking.gora.golf.rakuten.co.jp/guide/disp/c_id/200042","reserveCalUrl":"http://search.gora.golf.rakuten.co.jp/cal/disp/c_id/200042","ratingUrl":"http://booking.gora.golf.rakuten.co.jp/voice/detail/c_id/200042","golfCourseImageUrl":"http://gora.golf.rakuten.co.jp/img/golf/200042/photo1.jpg","evaluation":3.9}},{"Item":{"golfCourseId":200052,"golfCourseName":"中軽井沢カントリークラブ","golfCourseAbbr":"中軽井沢CC","golfCourseNameKana":"なかかるいざわかんとりーくらぶ","golfCourseCaption":"軽井沢の自然に溶け合い、調和しながらも風格が漂うたたずまい｡自然林に顔を向けた木楝瓦敷きのテラスをはじめ緑の景観とたっぷりの陽光をワイドに取り込む開口部２階の浴室からも浅間山が望めるなど、すべてに自然と豊な対話を表現しています｡コースは雄大な浅間山を背景に軽井沢の自然を巧に生かしたレイアウトは、すべてのプレーヤーの戦略意欲をかきたてるとともに、軽井沢でのゴルフライフを満喫するにふさわしいコースセッティングとなっています。","address":"長野県北佐久郡軽井沢町長倉1166","latitude":36.3301283,"longitude":138.5760028,"highway":"上信越自動車道碓氷軽井沢","golfCourseDetailUrl":"http://booking.gora.golf.rakuten.co.jp/guide/disp/c_id/200052","reserveCalUrl":"http://search.gora.golf.rakuten.co.jp/cal/disp/c_id/200052","ratingUrl":"http://booking.gora.golf.rakuten.co.jp/voice/detail/c_id/200052","golfCourseImageUrl":"http://gora.golf.rakuten.co.jp/img/golf/200052/photo1.jpg","evaluation":4.6}},{"Item":{"golfCourseId":100060,"golfCourseName":"プリンスランドゴルフクラブ","golfCourseAbbr":"プリンスランドGC","golfCourseNameKana":"ぷりんすらんどごるふくらぶ","golfCourseCaption":"浅間山をはじめ白根連峰を一望する標高1,100メートルの眺望豊な高原に広がる18ホールの本格的リゾートコース。雄大な自然の中で、真夏でも25度を越える日はほとんどなく、爽快な高原ゴルフがお楽しみいただけます。各ホール共フラットで軽井沢にふさわしくカラ松と白樺で美しくセパレートされ、フェアウェイは微妙なアンジュレーションがあり、バンカーや池なども適度に配置され、正確なショットが要求されます。  澄み切った高原の空の下で思いきりプレーを楽しんだ後は、木の香りさわやかなクラブハウスでごゆっくりおくつろぎください。涼風にのって時として野鳥のさえずりが聞かれ、ゴルファーの心を和ませてくれます。","address":"群馬県吾妻郡嬬恋村大前細原2277","latitude":36.4718483,"longitude":138.54804,"highway":"上信越自動車道碓氷軽井沢","golfCourseDetailUrl":"http://booking.gora.golf.rakuten.co.jp/guide/disp/c_id/100060","reserveCalUrl":"http://search.gora.golf.rakuten.co.jp/cal/disp/c_id/100060","ratingUrl":"http://booking.gora.golf.rakuten.co.jp/voice/detail/c_id/100060","golfCourseImageUrl":"http://gora.golf.rakuten.co.jp/img/golf/100060/photo1.jpg","evaluation":3.6}},{"Item":{"golfCourseId":330054,"golfCourseName":"奥津ゴルフ倶楽部","golfCourseAbbr":"奥津GC","golfCourseNameKana":"おくつごるふくらぶ","golfCourseCaption":"標高700ｍの雄大な山林に造られたコースは西の軽井沢と呼ばれるほど夏でも大変涼しく春は深緑・秋の紅葉は別世界の雰囲気が漂い、四季折々が楽しめる。コースは完全セパレートされた１８ホールの戦略性に富み、ベントグリーンの洗練卓越したグリーンが大好評。","address":"岡山県苫田郡鏡野町奥津677-1","latitude":35.2119578,"longitude":133.9386056,"highway":"中国自動車道院庄","golfCourseDetailUrl":"http://booking.gora.golf.rakuten.co.jp/guide/disp/c_id/330054","reserveCalUrl":"http://search.gora.golf.rakuten.co.jp/cal/disp/c_id/330054","ratingUrl":"http://booking.gora.golf.rakuten.co.jp/voice/detail/c_id/330054","golfCourseImageUrl":"http://gora.golf.rakuten.co.jp/img/golf/330054/photo1.jpg","evaluation":3.6}},{"Item":{"golfCourseId":100061,"golfCourseName":"プレジデントカントリー倶楽部　軽井沢","golfCourseAbbr":"プレジデントCC　軽井沢","golfCourseNameKana":"ぷれじでんとかんとりーくらぶかるいざわ","golfCourseCaption":"☆只今、プレジデントリゾート軽井沢友の会会員を募集しております。ライフスタイルに合わせ各種会員種別をお選び頂けます。リゾートならではの雰囲気を満喫して頂けます。お早めにお問合せください。  　　お問合せ先）0279-84-7111 友の会事務局まで ☆浅間山や白根連峰の雄大な姿を眺める林間コース。左右に木立を  配したフェアウェイはゆとりの広さを持ちながらも、アンジュレーションに富み、バンカーやウォーターハザードなどが美しくレイアウトされた戦略性の高い設計が施されています。","address":"群馬県吾妻郡長野原町北軽井沢2032-16","latitude":36.421685,"longitude":138.6287906,"highway":"上信越自動車道碓氷軽井沢","golfCourseDetailUrl":"http://booking.gora.golf.rakuten.co.jp/guide/disp/c_id/100061","reserveCalUrl":"http://search.gora.golf.rakuten.co.jp/cal/disp/c_id/100061","ratingUrl":"http://booking.gora.golf.rakuten.co.jp/voice/detail/c_id/100061","golfCourseImageUrl":"http://gora.golf.rakuten.co.jp/img/golf/100061/photo1.jpg","evaluation":4.4}},{"Item":{"golfCourseId":200019,"golfCourseName":"グランディ軽井沢ゴルフクラブ　森泉コース","golfCourseAbbr":"グランディ軽井沢GC","golfCourseNameKana":"ぐらんでぃかるいざわごるふくらぶ","golfCourseCaption":"★浅間山を望む壮大なロケーションの中で、全てのショットが記憶に深く刻まれる、ロケーションもクオリティも最上級のゴルフコース 西軽井沢の隠れ家ゴルフ場としても位置づけられる一方で、戦略性が高く、女子プロトーナメントの開催実績を有する本格チャンピオンシップコースです。高原特有の爽快な空気を感じながら、クラブライフを知り尽くした方々を丁重におもてなしするサービスとともに、軽井沢のリゾートゴルフをお楽しみ下さい。","address":"長野県北佐久郡御代田町豊昇1454","latitude":36.2980494,"longitude":138.5504347,"highway":"上信越自動車道佐久","golfCourseDetailUrl":"http://booking.gora.golf.rakuten.co.jp/guide/disp/c_id/200019","reserveCalUrl":"http://search.gora.golf.rakuten.co.jp/cal/disp/c_id/200019","ratingUrl":"http://booking.gora.golf.rakuten.co.jp/voice/detail/c_id/200019","golfCourseImageUrl":"http://gora.golf.rakuten.co.jp/img/golf/200019/photo1.jpg","evaluation":4.5}},{"Item":{"golfCourseId":100037,"golfCourseName":"太平洋クラブ軽井沢リゾート","golfCourseAbbr":"太平洋C軽井沢リゾート","golfCourseNameKana":"たいへいようくらぶかるいざわりぞーと","golfCourseCaption":"日本を代表する高原リゾート、軽井沢。太平洋クラブ軽井沢リゾートは、標高１,３００ｍ、悠然と構える浅間山を望みこの地の優雅な大自然、そして高原の爽やかさを体感できる本格リゾートコースです。吹きそよぐ風に酔いしれ、優しい光を浴びながらゆったりした時の流れを感じさせてくれる、そんなリゾートテイストを味わうことができます。ご予約は、4・5・6月は2月1日、7・8・9月は4月1日、10・11月は7月1日に開始です。","address":"群馬県吾妻郡長野原町大字北軽井沢","latitude":36.4225397,"longitude":138.6082022,"highway":"上信越自動車道碓氷軽井沢","golfCourseDetailUrl":"http://booking.gora.golf.rakuten.co.jp/guide/disp/c_id/100037","reserveCalUrl":"http://search.gora.golf.rakuten.co.jp/cal/disp/c_id/100037","ratingUrl":"http://booking.gora.golf.rakuten.co.jp/voice/detail/c_id/100037","golfCourseImageUrl":"http://gora.golf.rakuten.co.jp/img/golf/100037/photo1.jpg","evaluation":4.6}},{"Item":{"golfCourseId":200047,"golfCourseName":"立科ゴルフ倶楽部（旧：立科芙蓉カントリー倶楽部）","golfCourseAbbr":"立科ＧC","golfCourseNameKana":"たてしなごるふくらぶ","golfCourseCaption":"軽井沢から西へ車で５０分。天気の良い日は北アルプスの眺めも素晴らしいです。蓼科山麓の雄大な自然のすばらしさ、ゴルフの正統が脈打つ、伸びやかで贅沢なラウンドを高原の爽やかな風と共にあなたへ","address":"長野県北佐久郡立科町茂田井211","latitude":36.2500783,"longitude":138.322125,"highway":"上信越自動車道佐久","golfCourseDetailUrl":"http://booking.gora.golf.rakuten.co.jp/guide/disp/c_id/200047","reserveCalUrl":"http://search.gora.golf.rakuten.co.jp/cal/disp/c_id/200047","ratingUrl":"http://booking.gora.golf.rakuten.co.jp/voice/detail/c_id/200047","golfCourseImageUrl":"http://gora.golf.rakuten.co.jp/img/golf/200047/photo1.jpg","evaluation":4.5}},{"Item":{"golfCourseId":200013,"golfCourseName":"軽井沢７２ゴルフ　北コース","golfCourseAbbr":"軽井沢７２G　北C","golfCourseNameKana":"かるいざわせぶんつーごるふ　きたこーす","golfCourseCaption":"　○●○●○●○●○●○●○●○●○●○●○●○●○●○●○●○● 　　　　　本年度は７月１日オープン！　ご予約受付中です♪♪♪ 　○●○●○●○●○●○●○●○●○●○●○●○●○●○●○●○●  ☆コース紹介☆軽井沢７２ゴルフの中で一番のハイグレードなコース。毎年夏、女子プロたちの筋書きのないドラマが演じられるトーナメントの舞台。乗用ゴルフカーでのキャディー付プレーで巡るフラットなコースは雄大ながら、池やバンカーなどのハザードが点在し、バラエティーに富んでいます。また、個室やコンペルームも充実しており、大切な方々とのプレーに適したコースです。","address":"長野県北佐久郡軽井沢町発地南軽井沢","latitude":36.3151489,"longitude":138.6096353,"highway":"上信越自動車道碓氷軽井沢","golfCourseDetailUrl":"http://booking.gora.golf.rakuten.co.jp/guide/disp/c_id/200013","reserveCalUrl":"http://search.gora.golf.rakuten.co.jp/cal/disp/c_id/200013","ratingUrl":"http://booking.gora.golf.rakuten.co.jp/voice/detail/c_id/200013","golfCourseImageUrl":"http://gora.golf.rakuten.co.jp/img/golf/200013/photo1.jpg","evaluation":4.1}},{"Item":{"golfCourseId":100014,"golfCourseName":"軽井沢高原ゴルフ倶楽部","golfCourseAbbr":"軽井沢高原GC","golfCourseNameKana":"かるいざわこうげんごるふくらぶ","golfCourseCaption":"アウトコースは、ロングからのスタート。フェアウェイは広々としているが、第２打目からは少々難しい。インコースは多少のアップダウンがあり、豪快な打ちおろしのロングが楽しめます。最終の18番ホールは、池に囲まれたアイランドグリーンのショートホール。美しいベントの１グリーンをお楽しみください。 ＊１１月２４日より４月中旬（予定）まで冬季クローズとなりますm(__)m","address":"群馬県吾妻郡長野原町北軽井沢2032","latitude":36.4370147,"longitude":138.6324167,"highway":"上信越自動車道碓氷軽井沢","golfCourseDetailUrl":"http://booking.gora.golf.rakuten.co.jp/guide/disp/c_id/100014","reserveCalUrl":"http://search.gora.golf.rakuten.co.jp/cal/disp/c_id/100014","ratingUrl":"http://booking.gora.golf.rakuten.co.jp/voice/detail/c_id/100014","golfCourseImageUrl":"http://gora.golf.rakuten.co.jp/img/golf/100014/photo1.jpg","evaluation":4.6}},{"Item":{"golfCourseId":200043,"golfCourseName":"大浅間ゴルフクラブ","golfCourseAbbr":"大浅間GC","golfCourseNameKana":"だいあさまごるふくらぶ","golfCourseCaption":"広いフェアウェイ。軽井沢に隣接し、標高1000mに展開する、豪快にプレーできるチャンピオンコース。浅間山はもちろん、八ヶ岳、佐久平など展望が抜群。四季折々に表情を変える自然を高原ならではの青い空、爽やかな風、開放感あふれる環境の中でプレーをお楽しみいただけます。","address":"長野県北佐久郡御代田町塩野400-1","latitude":36.3410319,"longitude":138.5114494,"highway":"上信越自動車道佐久","golfCourseDetailUrl":"http://booking.gora.golf.rakuten.co.jp/guide/disp/c_id/200043","reserveCalUrl":"http://search.gora.golf.rakuten.co.jp/cal/disp/c_id/200043","ratingUrl":"http://booking.gora.golf.rakuten.co.jp/voice/detail/c_id/200043","golfCourseImageUrl":"http://gora.golf.rakuten.co.jp/img/golf/200043/photo1.jpg","evaluation":4.8}},{"Item":{"golfCourseId":200018,"golfCourseName":"軽井沢プリンスホテルゴルフコース","golfCourseAbbr":"軽井沢プリンスホテルGC","golfCourseNameKana":"かるいざわぷりんすほてるごるふこーす","golfCourseCaption":"から松にセパレートされたフラットな『9ホール』のコースは、軽井沢ならではの静けさの中を、2人乗りゴルフカーでプレー。コンペの前日の練習ラウンドや、ファミリー、ご夫婦でのプレーなど、プライベートゴルフに適しています。またゴルフ場に隣接していて、軽井沢・プリンスショッピングプラザなどもあり、アフターゴルフも充実しています。（コース内に乗り入れができますが、天候・コース状態によりお断りする場合もございます。）","address":"長野県北佐久郡軽井沢町軽井沢","latitude":36.3329061,"longitude":138.6360483,"highway":"上信越自動車道碓氷軽井沢","golfCourseDetailUrl":"http://booking.gora.golf.rakuten.co.jp/guide/disp/c_id/200018","reserveCalUrl":"http://search.gora.golf.rakuten.co.jp/cal/disp/c_id/200018","ratingUrl":"http://booking.gora.golf.rakuten.co.jp/voice/detail/c_id/200018","golfCourseImageUrl":"http://gora.golf.rakuten.co.jp/img/golf/200018/photo1.jpg","evaluation":0}},{"Item":{"golfCourseId":100053,"golfCourseName":"北軽井沢嬬恋ゴルフコース（旧：パルコール嬬恋ＧＣ）","golfCourseAbbr":"北軽井沢嬬恋GC","golfCourseNameKana":"きたかるいざわつまごいごるふこーす","golfCourseCaption":"北軽井沢嬬恋ゴルフコースは、群馬県吾妻郡嬬恋村にある浅間山のふもとに広がる本格的なゴルフリゾートで、標高1,100mの涼しさの中でプレーできます。大久保昌の設計により1992年7月に開場し、2015年には、従来のパルコール嬬恋ゴルフコースから名称を変更し、リニューアルオープンされました。  近隣には、上信越高原国立公園につながる「浅間白根火山ルート」が走っており、万座温泉や白根山などの観光スポットや景勝地へのアクセスも便利な立地となっています。  高原型のコースは全18ホールで、自然なアンジュレーションを生かした戦略性にあふれるコースレイアウトが特徴的です。ティグラウンドから、近くはオールベントの緑、赤松の赤、バンカーの白のコントラストが美しく、遠くは浅間山、四阿山（アズマヤサン）が望め、リゾート感を満喫できる一方で、ひとたびティーショットを放てば、フェアウェイに施された微妙な傾斜やうねり、及びハザードが行く手を阻み、スコアには直結しにくいコース設計がプレーヤーにリベンジを約束させます。グリーンの周りに点在するハザードや、ピンの位置によって大きく難易度が異なるグリーンは、熟練者をも唸らすトリッキーなレイアウトとなっています。名物ホールは、コース内最長のロングホール11番で、馬の背になっているフェアウェイの攻略と、正確な距離感を計算した2段グリーンに向けた第3打が鍵となります。 また、池とバンカーと松を巧みに配した７番ショートホールも名物ホールのひとつで、左のハザードを恐れず、スピンの利いたドロー系のショットが要求されます。 場内には、230ヤード10打席の練習場が設けられており、ラウンド前後の調整練習にはもちろん、練習場のみの利用も可能です。  車でのアクセスは、上信越自動車道の碓氷軽井沢ICより約37km、鉄道の場合には、北陸新幹線の軽井沢駅より車で約50分です。","address":"群馬県吾妻郡嬬恋村大笹字大平1832-1","latitude":36.4762494,"longitude":138.5256056,"highway":"上信越自動車道碓氷軽井沢","golfCourseDetailUrl":"http://booking.gora.golf.rakuten.co.jp/guide/disp/c_id/100053","reserveCalUrl":"http://search.gora.golf.rakuten.co.jp/cal/disp/c_id/100053","ratingUrl":"http://booking.gora.golf.rakuten.co.jp/voice/detail/c_id/100053","golfCourseImageUrl":"http://gora.golf.rakuten.co.jp/img/golf/100053/photo1.jpg","evaluation":4.4}},{"Item":{"golfCourseId":520328,"golfCourseName":"【レッスン】スクールゴルフミッション","golfCourseAbbr":"【レッスン】スクールゴルフミッション","golfCourseNameKana":"レッスン　すくーるごるふみっしょん","golfCourseCaption":"■人気レッスンプランのご紹介■　　★　1名様からご参加出来ます。 ◇近い！　都心からアクセス便利なラウンドレッスン♪ 『小田急藤沢ゴルフクラブ』　キャディ付き、コースはフラットで芝付きも良くゆったりとした雰囲気でレ　ッスンが楽しめます。　東京に近いく接待コースとして人気のゴルフ場 『KOSHIGAYA GOLF CLUB』越谷ゴルフ倶楽部　越谷GCのみ集合時間８時３０分　整備された練習場レンジと大きなパッティング練習グリーン　カート（GPSナビ付き）・ロッカー・シャワー個室有り　※人気プランの為、ご予約はお早めに。（首都圏からのアクセスが良いコースでの開催はほぼ満席になりますのでお早めに願います） ◇暑い都会を離れてゴルフも身体もリフレッシュ！ 『軽井沢プリンス浅間ゴルフコース』　午前中は軽井沢72の練習場（池に向かって思いっきり打つ、爽快感タップリ　の環境です）　午後は隣接する軽井沢プリンスの［浅間ゴルフコース］で徹底的に楽しみま　す。　軽井沢ICからアクセス抜群のゴルフ場です。通常は2サムでのラウンドを行　う、高級リゾートコースです。 ■スクールゴルフミッションのご紹介■ 日本で初めてオンコースレッスンを事業化し、今まで1万人以上の実績から自信を持ってお勧めする、『王様のゴルフドック』Ｒバージョンが始まりました。午前の集中レッスンに午後は楽しい9ホールのラウンドレッスンで実践ゴルフを！！　 ◇午前中はスイングをビデオで個別に解析し正しい調整法を伝授。（勘違いしている部分が驚くほど判明します） ◇レッスンはスライス・ダブリトップ・バンカー・飛距離など悩みが解決する驚異的な内容です。 内容が『ご不満ならば半額返金』キャンペーン実施中ですからご自身で体験を！！ ◇午後は楽しい9ホールのラウンドレッスン（1日6時間で貴方は変わります）","address":"東京都東京都新宿区西新宿3-7-1 新宿パークタワーN30階（レッスン当日の集合場所はお申込プランのゴルフ場になります）","latitude":0,"longitude":0,"highway":"","golfCourseDetailUrl":"http://booking.gora.golf.rakuten.co.jp/guide/disp/c_id/520328","reserveCalUrl":"http://search.gora.golf.rakuten.co.jp/cal/disp/c_id/520328","ratingUrl":"http://booking.gora.golf.rakuten.co.jp/voice/detail/c_id/520328","golfCourseImageUrl":"http://gora.golf.rakuten.co.jp/img/golf/520328/photo1.jpg","evaluation":4}}]}
